a3807b5fb73324b17c58f72dcd0fdf70
781a1d5335f06ee570abc2f478b03e2d
ec458e789a7ef7063c0994f4b4d6a00e
2d83155e826674ef9cfd15ddda40df3d
d4527a5fc61e1164104d705666c29861
9f0ea2546b32144ef716b19e2ec8ee45
7a650edfcf7e44821adae9a2abf873df
8d02918925810471ea267694caad2bed
a21abfe50897f29ce2d6baf2b1f76eeb
555e889fd92ddb67e8edfcfe0a7a6e55
6b53682d4dea97b0b46212b3d0d0c8f3
5ef3a7821e87bc980027e435de19b2c3
4d31aecac2c653d69d04e0e57640ee59
b699c0e666f0894080f19af2707f8120
da163956a3b28aec1dbc0b7292bd5fb2
3350a7c9b9bef275a93c3ee22af5a3ac
bfe1762d1eaadab37950bc92b62f473c
7d41404d2eb39a1813f6f2b9466db1d3
7e9f90fc4c9ceb733b6dc0e649f1d26f
02a3146f47ff7f9ac15d1bb4972f31ab
cac3eb3cf5d3cb66566bd8947be8ccd7
63ebb04acbacac7e79ba715228a66238
98ca51b047f53696b49f43ef3a73f288
d4c620c6dd7929133421e5cb2bbd8c44
ddeec152e62963546122dca931250348
27cd0881196ed4d0e894505abde50889
3b5433e6060934d8e904b0b2bebbf42a
0798cd66f91270452b79bdf49858e86f
01341b94ec10a347b61b6ea0e2f443a0
1870c6211c98a077ae6cb7fee2f0a3b0
7cb227d0387a01804f56256fa8d1bf01
ed01e6dc5b59e2e3f0e5a82ac15a2296
1d061743b5e542246d1bc424d742a250
424479d4205110e3924b7133affba4f8
083dcd4847928495fe686de768370730
bf3286ec8e35655d9854c7e70220d4f6
fe39978637177aeeed71da37df0bdae9
f0269b37c3a9626aacf46973b77e587b
64e310f9f0bccce3c2158c6f41fe021c
6af734ebcb69f2216e142a84ea0bcb67
00dac5ff310ad41aa5e8dc99ba7dec38
e05359841d757295d9347e2cd2e1b754
3583d19450c8991c9e07e8401b4105ee
29c9afe62d41984dd2ed7d9d482c682b
24a1fc535b9bc35349d596c86b2d5332
ac4a0e423df6049f83818db285f4689c
7d544586191358bd537089c953c9b4f6
feb42f0393d62ed203849f0b23ab235d
0502dd528c45d36106986c9b77a525b7
dbc4a9ed3d34a5cdfb609e270f575c2f
88d280fe83af34b28dbd937127cbb74f
9fc067d17fbcdebe300fd8488c1901a1
752154edff26a078701d86309ea47a30
e0598b8eb654b3eaea988d89b37ec9b0
5245f103be887f7dda07e5d2ad1be5d5
6b843e0ca42dce59c104e44f8c5866b3
02203f77fe269104a2c033417cdb09c6
2c91b6bd5d2ab005506333d0d6e708de
3425ab8635d538af8a26f18b8497f34d
40da7869a1f4ea831c5e1ec2929f9780
0819bea37ff525ba7cfafb9e8969a649
8efbecbdab6d2e8d3fb105cf6eb0fcb0
8297cc5146a85fb9fa5562444ebf2407
decb7aa90c1e6607333e9be6f5e2bd29
6c5e8c082b0099474c8deb39b5edec42
7d0aa87a2aa62787e73cb822d63ed8c8
a5698681ebb0650af7b88aaf4e09545f
913cf5908ad24c36a80bddc0ed0d7f57
22b5baea059674aa161d7f133d4f1431
e066910ac1266480f9e3b7ceeca784de
c33ebe8bff4768ffa23501e6b336405f
98a5100f93a855d21662008239199530
9c024b89825760ddd7c7e15991e7c5c9
9876bf1859ea3de8e08f62da6a90969f
6f65bcff2b0bf6b890c3f098b472b655
77207f5afc8cfeee4122c6a408f48576
8db3aeee57bbb91bec19a2e541b04c25
353a593974d44a1a40b3c6616bd0d844
1545c37ebb541d4b6abefdae951a9956
3763c7b8cec358902aaf7ae4ccab8bba
dac43c9bbae740b16a06c9b1a889a9d1
cca9bce50d03e0af364d5de2b8d5ddd6
7540902a7967f207fa2c90cd73695bb3
e33ad6ad5cea1bef500d64c4767e2fd0
e041204961654d40e4573050fc9065ee
5e049769cc5c08e5999690c9c143a0d1
b496d8f61e3310669aa1d58a596c0d23
c49ca504e7f99c7aee4a2508e0a13460
27aa22a6583f6b5396d35110dd842ddc
55793236a2aa4343a0a46f2bd2a27cf3
6a8b91e747e2a106e705baef62423007
4dfe5fef146164820f2250ba5afe4e9a
a8a42b872c4b10276c0adaf53f9f6d47
a4ee9b2948b3de8099c9c6653cccf8eb
04faad8dca7de2abbca980e7f417aeea
c714575245f9fe0e1e10fee8a6e6cc12
105e0400efd2ea982b9195c0edd44945
60672f837d2f498cd5350282640013a7
a2cc0d3200b1cca4130aaa016d7891bb
e6ffdc4d8abeb397c70cbe4c90de0f69
1605a50ce9052e9d1e6006b9f44d0d31
8a3fe443eb1ceca6653ac7f8cc8e164e
333f93a42b3dc21da338e72672b77c63
7ca96a01e6e52665169f7131d28511e3
d73d38c5d51de56a29235439bf05a711
7c724ccc344f1b6e70c8079012b9a7e4
c0fba079544fb82efa78f7ce07c7d712
becb005cc1820bfe902017e60b2e6f19
ee330eea34d5b0ba562759dbba5d7a6a
f8b302b5762acdde5a61a8aa5deee4b8
8292a9eb3eedede6ccdf32e33756817a
2516f98c0ff0d74a6be7a7008528b13d
bc47c4370d747a2aad6bfc1fb56144ff
55463bfe7cacf68d53640c855ed07760
3f4bf77f2e5e797263302ebdfc5ae57a
13da20f7b68f90fc3cbe52026011b47e
e9680273e015b8ba3a4763e5339ed3ea
cb7f167798aaca487e5cb12f393aa268
3bcbe75575f1a56e24d625bba528ea1a
bb5cc825ff92e033c066aa8fa1ff72f1
6482276392a8595a6ae0d33cd53d9575
55ea4efe146fa4852ed8521c814b11f5
e8008eccff63e154620a0d942044c486
6faf81c5c52b351e89262775f560b24e
f6cc26952155eebe3695a45d0c8753bc
a82a157499a54ae354be07f26d06790f
b47e7a2ff558cd8fa059e7455246b5e4
7745fcb026e6249392c5b7293f3342d7
1a2385701b66145211d6704814708f69
18c1291ee0a9dbcfe6181af9d9012c1a
8666e23f977c75dc7c40af7734f23ffe
2c088ead7b6bb69453589175737058d0
7b667f4a7f963b4fae58c8070d97f58b
96c921ea80265da2129b587fa45fbf6a
77a6c30aca277784a5847bb7fc85768b
1478a3e84aae1c34b4cce03e99c62191
cebb3ee8e31f1c1af81d36d0e0492a6c
3654f2995fe740cd6d6d6de3fd62b668
e6660b6a53a3be7e6b7f35a42b3ef778
9f0f56acec084d95ea5384613123f7fc
34bf94fd2975fe363d3fe160f5dba9a6
0bb41e538c2fdba4d86bd242656fc752
48967d8b3036777eef9a858c6cd1c9de
d6b6173c479527a7343041def769132d
d4a8eec754ce7fe8fed5ccc1f0431e13
4aeab0bd4d962dda2ff2d15b21a7d2a9
d78f2bc6fc288e6c97e5820e233fc7eb
8363629e0f2a4ddfa01144635747fcca
cf38c23589b8c35ab5572f33eeadb9e7
8a65e1ed55d74d4b6c7af1b3b07d3432
9c9df37b555be668418dd20fdf27f362
6ba448700468fe6126a2dd2917d84a1b
527ebaac6dd74921e98cec101593ece3
38de81bf04952ba0e59dbf2573b595a8
55409289b2906c92bc4d663afa6b7f76
b893f116ab2ded194b087a46e65b7531
71d3a51ef0898d4b61bd3cce0052a417
6091cbca49d1bd09d859f3d2a2c8a927
4ed19f8ea7f2fe35157518ad107ffb6a
c8ac7c9badc8c6871ac8e4285ad2ad91
3e28aa63eefdb84285873e3d0a3e5d06
ac341bd98bc67c85566c3791430e1efb
a03659b98a5ed76f292068a93b1dd2bd
0b0cc1a0ffb4ae1029cc7406884d96b9
ccb9d608e456b67a7080b6e21230e21c
c3cb8280e09abad1454b0fdafcd8d436
b4e559be61d29c7fd3f89db3b7dd2f1b
10e6b3cc28a9b2327fb305e4b5c16eb9
001ea45ce32bbe05ca3d3c636fe228d9
7cdec849438c76e1c607a5df74cd2120
997e01bccd6fe233970fb20276d47862
efce6dd6fc540e3cedd0efaecb35a606
b9fdca562df1e8fa2f75fa88d07e364d
6ea685b9455c61e0c34a1dcbec39a7c6
c23ec5c987f3553752298928bd6c8233
6936d9e52346e4f6be60826cb0ef4e6e
298ad7906c7dc17845f6d6ac7654a84e
e07ff6d0b9a27e8238f4939b65be6812
322e3da4b3f32e93562dd253bb9bb888
a200a8cbfe47b750d33f9056ba79105d
509c982a40153084dbceb83a054035c3
0b8f3849ef5d3b8619eff47596ec438c
71fb8d7322663cc9db981490635ea2a2
45cc53e9643b353f964481cbe2684b55
333a03a845cae7f124c59b81e7cb01ce
3434c1d8667d489065d74488469d66a8
c8a6db90a4149a0b88470842681e3522
42c7c80e17678429b47f8f43885a70d9
c5d15703e48897da2f2a6e84cb80b187
1faf2f7866683bb8281a76ef3f58eece
d386da7e10a98e91f1daa361d80b70b2
338bb42ae5553f6093cf877708541518
d49dba5f41b8fe6fa9cdb64a21f04b17
c3621287a03a130be9863f3ffae393ce
a2b1a528670de781dbbb40aac9fae4ec
574791a86f03a590d1fbd077063afebe
f5c613a45732690186b30d7519c6d0d4
1c21ed6d125a608d005796f4cbe9236b
d50b2e5ee3ac416756c3947381ef4ccf
5d45e37406657c2a969f86eba7d939ca
59234cfebb1b328805c8f99ba2e30734
68ec79489829763f55ed5244f5ea0724
546022dcafae3c6ae6c62b38935223af
c842645422bbd469b444771b4520a31c
5ab54ab93a2bffe223230205d6c77ee7
fdccf85ea295e045c51ecb10411a676e
543576198a52b743f6f6f5017d91a4e0
8a4b7783536291de9480cd8d2f2722a2
dbb2b0441b29fcd75dbb8468366cd5f3
0112893cf1fd75b2647791b6d3de5d62
ed41b47a3c507f7ffb453ae335a64fb4
ad6000c3436c5836e58552896cd91b75
3893289fb385c80b92ba8a75c42f5e58
9c3879bc47ab1edbf25b3988646665fc
594d752ed118f538c8bedf876f2d4159
6a31e4d205a4791e73d6a3ca273fccfe
3ae1733df23e83a54c35f83985bde83f
23bf5dfac64a3a45352c31ebac602adc
83da83e5929a08ae7121a1a25b0ae39f
85972694953b13c28ed2d1a24e0497a9
7180a9a7e2f888223c41709d6f0bf36c
5259650338f3f509f428a055a97bdba9
2464a5cb8bade7f539bc6d0477335dcc
34ccaba895bf86d5938e1ec91ef50d31
1384cb64dcccedcbdc9513799715aff4
9ae0a2d29f7b915811356a053c4d2f17
c995ac006f84d2598e09442b9acd1f96
d4029387ebd34c9150903bd8be588c1c
20f45adf7a2cc7a969d2bdf614185dd6
5c0aaeb87fc4b50b2d728e0c1e46dc58
17da41f233d6e67b000ff73d5a58bf3d
ce6f61a8f5a7b3f55993b32a94e052c6
992fb286b46c9b897bed05e8df44fcf4
bf9b7413c0bc555b21971e27962c74dd
a9016ce6ec0d011c574bbf536cac27f5
12b7866675568fc2351f938e6289248b
06239cb3de5bee44fc6958d1c0cbcdfc
e4f949b1fbd516d75580629fa571479e
93f68858ed9783bf92e700bbd3bde270
70afae43c9b65fb3bb8e6b373a862353
429739a0d21fd206d8238eb97162a28e
2006b992bfac22fba78811a820fa7a9f
ff95dbaeda59c96a3eb4585e8633b13d
ec82cd83b13624a7461e116c8c14f1b1
1a7c4badc42b9e346c2372233f9ef32d
8d66980563175fe0cbc04ed0fd20df45
2e080ed53bd6fd4f52a96c1eee95dfde
56220db73d434b5e50edd4030606ec44
de9c608f659c1ca6f8383643e02ade15
6f7babdc2369c87bab84fa5376ae36d1
409878328f8ec294fedd1579aa8f5625
13c94a2cc4515ee75f1a2acbee1e0b7b
79e485e63e20ce9a108a56e56da0cf47
80f70304d3f171b53e47cca948215e03
dcda1eb121eab3ac64ea8d7ae75b4669
3c90b01719baf3e038e7680c0acb0053
58d526d40c538bcc46b422631e5fa008
132a1c9f81fbc3d3c9cf0ad6d37a7541
23d36693b97fb354011d486899b6d7db
632a16c3899e09f9d6c8f97d1a367caa
9e8f1b3db75ce981532e720b3fa6a99b
96486f3aaba0a5cab8d71d5d6747fd17
fdee5b1588e7ee9d1c3b34f1f3267bd1
d81b53b6687546793143e540d453d170
a51a733940f7577f18b8799d90f37481
80b8a88300f6a341e42e059693df951e
78f7f4acd5bcf18f5f13e9e475b94679
123326f16d1265913a4a891fb178d74d
15f0ab8aa39101663b134ac86f56d3b4
f7ef0f48bec0246b675da937163725ca
15b7a19851739c947a46baf8836e6102
e149d83c2afad517e6f15791b6229dac
ed4256f16ca1541f72e7f28265e8b303
17a1bd7afa145a4d8141bcff41055378
85c3f85f6f903e573cbaa86d67352e27
db039368e9bfb41e6dc5f3756839154a
c162794392cf38d35365745190504020
bf348ca3b4a2b360d617e0e42389ddf5
608b9fe73b8bceca3570bc51d8530c2f
c8a6a88c5b44e572da0439a9d0274bb1
8abd1f80e1e9acf40a108b44e0deeded
5c7ceac40dd4e5fff51b59682c0308b0
84c55ff267916a64a05c177e02cb44ce
aa68e38ec99ce2a2b730bbae1dfdb829
6ab7e61da29b335a47e6156baee5b733
bf8c8a277040f20d94ca31651cdd0c26
d06a9e2810cd0e534fbee2c00e9a4acc
48ecc342bcd430587a7e45a62be6adaa
625f2506f5cad8c9218fc0b1145e82ad
fd93d997950bef295d634bebbdd0ce5b
9af863239ac39644dd359a58c9b7e2db
583a68106a01c42e9f884738f943e89c
119bf4cb3c77799124614280bf23cfb2
b77496351785cf78f8728b64c2672cc9
15f0f3fb63fc1cc8e27bfa5ada62fa28
6f7ff27b518e94c87a9371701d7adb60
2ca34903e9c6994efbd546dc0dc12a23
d0959bdf50b06869d27e113dde6b6668
726364d82733e239669bfe635a361472
9f2b98627c493a2d3b79eb9c7c782c56
87de251a9c49f2ad11a96a3a8ef9c953
bea551fa0c9e185d3946600ac6faf515
c57e56597bf1c643e14d8cbb998e1d54
9ef720c0adf0c62c2b57c7f1ecb363cd
1627cab8d2155233c85a5012364273a3
2eb78e827b2c334f80e6140561e9612b
2152c9b04acc0541f4a25881097919f8
260a5b8349398918b4dde1697ab24f03
fa8b45f107d5be6d20cf363d7034f5af
08e5a8e140d49c7d75e43b11826510da
358959222b07d94fcb321b07c257b28e
bc37539d19d1472afca0b1f4be97838d
797ec264c0cd9af5ff168d5a62352967
7afa590f7bba74f8fce25eddb0fe3802
15e4b86e0ba0b59b8446859a206821c4
28dfa1efa7a6a8c7ad4db624a147cd75
e03f4d404a00242720b7ea2fdd935d21
bd536525fdc6e2e9dc46d19ffb4967f7
1d2273a2f646390c79777d7f5c7736b6
505a165dd8be80f3523d092edd016d61
79421e69853e8e3b1d8c57d33ea1aac7
5c191681cc10d933f6efa4766c75991d
b9ca8cd138a1b1c4aefe95d48da94a72
8c37911878ea006c8da7f037596b5be8
d9e566697d733eb67b9909581ec6d6c2
430f14edfbfa87496afa167d29d004b6
7e9fba2fa151e43ffd5b0e84af094934
217ea6c172ed7c03aff353905f201ddf
a111d84590b289cb5cdfd88ddce7d1ac
752746cab3cd14c2f0ccc21e9516a658
99818bbf1de5f6326ce023c4905f9f8d
8d78686789bf28e99cb0312cd8109eb9
1d16845d1a60bb4c1b0cb86770460087
f0e4dbcb33682558f7fc3234da5dc324
a68edd416f3fa5bc9c452fc8ef3c4aa5
41371d61606851e699b13305fc80e5b3
9d7c8b0d614d762b126abc955487da4b
4d5343c425395d35dde4f894d35c95a7
5f3d02166e9f04ba0cb9291223ac1221
5809031c5e55a164e444904047b8a38c
3125299e6e8072850395f5d9fc3f4a84
d1ebaf874c693eaf86d5c70bdcfc34c3
e0ebb56aec8023079276ab4d94629c2e
aee6b7e2a7c0fecf29cebe0c96d3fe1c
b0596d32f4cf05b3bb399b945b73dac2
b24001e7a089ba69fa9ae80e698c4934
2fed193d71023df101d9358c09e2b71b
d8da095aaa0d1413b9ff6c4431ee4bf2
6f4c4ca558a16aadd43a23d07c617d15
7580f318f0a70619adccc37875bc709e
9aa284dedff2e9ae21763989478760ce
76da249af3e9f02eff8378893e4a4f78
fcdf61543e84d76e2364cd1cefe7631b
1b8ebe5e6d04479cd2c21413df147953
1077f36130af92fba65875afe53e68a9
944f5705a1f31880f122d7f2ebdf90df
e7faaf656fa5788519d6b28e0e8eb378
9839c885a155f3bc1edf4ede043c682d
9d2141ebba57df655dc775863793e816
f0439007bba980dff019493a822912cc
b7215ec7d0611aacf8499c8cc3f65b69
f0dc78225ee471f257bf8912cd36b44b
9dcd45ad7bb538f0d98e424ac94d1bbb
b8e590361a90985942b099e2d384d64e
26c786ccaa733b566949f5f9455ebb36
e7e64985539b81192b7b9a09e8e1f15a
f532f88fc3730f76d373ffc7054a9e9d
7d95c0a910991aa88d99929463f0aa91
dbb2036d054bdda91513ec37ab0a57c0
7ca88dcbc06c33a0acea7209faeec466
6d8bab506790366794bb5fd64743b641
256d1bf624b1d3d61b206367e8155525
878199e86824dfb7b83d392d20a962fb
60ef10657382826e26d66cc99810afba
a7bb9856f2da2fb34adf05abf8f0ee9c
f8ae957d7a4fd42904cffc20e4eba76c
97aeedbfa78abcde57348088675d8e3c
0a0b0cb5ba627d37ee3bee8747d96f02
4df0a7107510933c0b6f7d432caa5926
d7ed2fcf0fe10bd10ca37a6c1014da8f
1583384db3f4707baeb208caaa7bc24a
eb2834794f4dbde0cad196fd3d09a9eb
669997a3e4f13093d8eb386d7ffce75a
ee222aa31fb249f6fe2b0fcfd37830cb
62d00f29cfb3c6e2a51b551520d5e34b
7907db33d4d3bce09226a7fd79eb403b
f4d87384c767066d543388899f42763a
af0d4dd048a452e5d32048514e03d903
675442be5c6a86b44d702373e65d2b4e
2faa36ea9c94ad8f871701a487c234ab
3c3b32a6b85bb9821ad7e5e1bf76605d
16683f97501b513968f0cb0339c5161c
6154d460cd428b104aa2321e61097037
ff9f8b4fc69824fdbc770353f503dfc5
31262a49e0cbe1b248d7e5747c91e2fc
39d2bd0224185f147e9c14ac8951246a
580a3055bf3b6de714ccea0f0a6c6ad2
fbd4da53b862f34d2eda4422b1356442
035636a862d40f2cfbd656cc44305d7f
2bf63a36b7218453591ba563ce41aff6
f576414b2651248fa8ffef4cd0f0cb36
2622403d0401290a60028d502f6e49e7
c8147c90de98809c4b545b8bc96bc4dc
72ac9e8e2b1d2ff6412a8bcf4f4c4e22
6f12b631794ac854b06f022068af3b1c
3c1cc8f8277bed49028bdf63a371f07b
c831d24b35d04aa374650dd075e9a9e9
200cf1d2d33f2f9b2d19470501fae7b3
f0c71a273ebb03e973be6ba064b2131a
ed1abe8a9a92bba25da21ae30981d71c
b97554900f6148a3f53fb9192960a7b7
37d6b59c273b03ef742ac554aa0e2e9e
1d0092f595516fbea3faf9ede4323613
a7c340394a45d5980baac3839939ed90
00113f75ebbf93816743f49ef152befd
9466ef12bd860178c04ee6075a2baf72
cf51e52b27231d8364c4d199923b85c8
3758bd971cb9910e073e8fc156cc9319
13097304301a61178f57ea33d5ad1bfe
b49b5d50072fb1c0749b61cfc0cdac99
f50d51088f93467e6eba41590a8ac44f
bcb4edd6760a1fb48a84a339ef81d0ce
f03c16cfedee948c72aa76cf39f21fb8
a7bd5718fc406c1952e7e0107af57ca0
6af4c7754324de4218c9772538f7c127
94c6eb4a02862f3cbe70fceaa2ca8d1e
64986229486e3d4a45d916a50ecf314e
69c6edc38cd1023e1457b90ba41cff2b
8f8fd41396bb6497664268c3a43a9a5d
77cded8f4ea8c510c61c60342273d1e4
ad32cb98f56eee5ffb9175849a1abd7c
5cc9f72a1bf6e1f70b91b0dac070c4e5
c3ed111f1e3a4f451a9a77fbba170817
f003af1d966ae0906d46df31cd0191c3
8ab50400862f43b9ed40885b3cb4e9bc
41fbec794b9ad90345ac020db2c0325e
c2c5568c79c339b47264738d127ce7e0
f7c540beb1bdaaee84fc5f7d1f7c00a9
8092ee22cebcb709bf3ecf590e9956a6
5a042c0a4f4a72d7876138ae7f579007
75fe192b9f2c66e09b650496f2acaffc
c3f001c4fce40fa90a5ed18f13157110
3ee231ebd526a3c9153db7a882fca718
8c801332a505f08cca2f5537dd4ec4cb
02a658d9321dd7eabf810af08aee0a6b
807e5bda4ed09fa736da267a7008f80c
1e18f751530936ff585eb353b7615957
f8791a9a05b7609260f75c676afd23c3
1d4a083dcb88e9a9d4aeb6078818db24
3fee31846f09516fe680944921f73b2d
8a23e4dfdd9e9c4d3039a0fb8c79ceb6
eaa70da9da0364ad1afc985c729033df
603b4bb5531f3defd838365f08e4c14a
717241230e4d6e01893ef8687a02dd38
20eb1e038e2e7b277a21708be9d47634
a800d32eb385457f46801e73a1c25616
def7e83f52de4b0f9f21bd459af38120
9efe2895ddd67a459e3e38b0edeba604
6d85504bcae1f43bf5bbf1239b804e57
ed446a87b7e9e61c46c6ff0e70b91607
7ee9d1c3c2c3bc54d54bf12391bfc9b2
820dc19eba96b9a1c5f053c50679b3ab
19f14cb820bc37ff12ba725c7ac52da6
2493683ccf35b30e772ebe5138b99bdc
d435fe29b502279d459d8cb7fc3f62e4
6d20031ffc1ae827cae84a0c16a48e8f
2530bee02141fc1142678a02065c798c
c0596ed13a0f64b331c9c3ef632fcb94
c665c021f9d546b75f11466b903bf829
2b2366ab27c60e26266d1ab02702c98b
e91ce4c64e21b9e348bb806f494f97f4
c46d093983fe19beef700e9e0fc4c247
6edc6a0493052f5517bd4b3853df274b
6eea2453510482d1346e8d60f7d7619f
cb8eefdec7ebe78eaf025ccd2122a4ad
462c640bc2ef3d7746ba75e1cc5b7097
e6f57a9703517e073d06d7295e19e6ef
518541b2eeedcf31be0ec39b7d52d6b5
4aced45904fff81fdc9c470622e7c396
ededd83bd5652af0f29f8a87312e4b08
ae4d781aecc6b934e0f28fe10c635cf6
bf686abbe32e8044a508e79ea26c563a
adb8183443a648456037da59f405f308
e3def2e9dead5656932a0df875aec9c1
8b6577216659dbc1761c89815ec3eed7
92c9ae170e265e1c1bf48be7ca458906
15a44bd0913161afe5ccf71a4f095f8c
35471be5519f9a7f6f5c6a3093e80bf3
c0a38d34b766f75aff03a9337071894c
704a9c311137d3f2ad5768e01a4ec68e
2a54e8526ffba39183f44f0b60d23993
d0b8d529a52fc828b0628fe3add092fb
3926de6b2f76ca1f02102065eb83271c
2d408077470c989916be552cf0e71b1b
bdd1512d8290beb13daadaf9f92a6243
e0b8fa64b5ea33b13d1a871b558f5546
a7c9d3fb3478fc08d3607be42c0551e1
65f3cfdf5edd6e580614af67dd2e832e
6fe9f1caec581b9572cc725e98e8de2c
b9d4bed95440c162c0be1d896ad4a7e8
d1f967bebb0f5b0f748806a8b573a532
e2abd19037dac7c658d20fd04be9bf0c
2e4668f2b4d1bcbe113ca8814f9d9db8
ae808208ff5c56baa9443555bd05f68e
960ce09ac3e90817e2a62a9d2eeefac8
e757b1ca7ea8b4a78927f5be2966dfff
4016fee934263f0bfc62934570181de9
76784aa67bac978c78dfe5418dd25fe0
b868800eba134d437998b80cb235d0b2
8ac8465a28ec3825c5d774003ed9b22d
f80035b4c0683aa4a162d4fa2ced223d
428b0c241e39ab770305513791179992
6e74ea7ac9cc42d15ad6118db224ece2
3c4dd5a1ee9a5785ec867a2b36373c56
879f1fe96f06c5afd3f86c8de44d191a
b2ab24de9254e9fc3ceff864ffa0af78
999975749dbb9f165f3003a0f7a44b39
3fa6bde2b3510238ee8115ce25b268b5
2c5b929be7bf7c412023606e37cb03df
75db82195b2e3cfebf45efd3dfe58d17
7060e24da003ea9872fdc7fe6430dc11
bb34bec7d968fc778784b58cdb409c31
6162cd07dd0bf7487a2aca09c0a05dcb
04bff27376636dc86a51dd8c4cec303f
0fc1c3e6b70a96dd06b0f8cdb34c2051
135e94873bebb06e6a1d31c036e489a8
d7efde14809bcf0c2a4ac5dc6819ac5c
6d5f14719117dccc3ce90acb13065da4
397265443c4c4c225908e2ccfc723f2e
27cb27a6ce3eec71938d0468ce69a1b8
6948372d64e35379137f38c0467cccf0
a50b097c13f6bdb41b001b9243547843
5afc8f16f01578d310b7b6b9c3dc4b2b
42d6ee77dcfd5bb0b6601d10a3f6d370
277477bec541c0f1ae1982a985ea9d68
0733374b5bc165aeba3c431f9d05351d
42a08ccc8d95a923e73734cda83bbef6
7cbe67a1191d9a98bae35ef8d29f3943
a6e8ab1579a587600be9df6bf358e892
631db793f1c15a822a218dd1c19935ed
51c87a28ab7fd0c99a64fc3ea735e83d
ed663cde4732d09daeb138565006a13f
6993af8374afda97f4d9fe0ff3ae4066
f8b8bbdac78f25aa42a48f3255e1b9f1
ecedca2ec634b37f5c4438eeecce00f4
3d174e32632c5c4e1344d4349b4f3123
2e5257c8aa7582aef49cf33a8fc3a0a8
d5e19acc16aa2e59d6c336ab992ec145
c78deb4a0798c9a46ac4a3becae0d50b
3e73a2c925a470ffd8d7f4361fa9dce7
8d7ee58dddcd1e8397fdc2d010eda72d
730ec6b08c4d7dab706fd0aa874272c9
3b47a12b0e53e235023011687b0f6139
f2ead19504896b695562ea268d454c5d
6c32972ac9e9ce537ed7f7b78aa085fe
7ea394ed1fdd0dc1d20744b88c0f68d3
0fe518f60126b1cd9e956f9e5e31c7a1
a9a6d1dce1f72e703f00936752ce0404
7ce414c089a18b28d1f5fb3c7e9668bf
8dca5c3dd0436b1490df023b4328eb27
aec7776b0d8a10fa8d1fc9ac598415a9
11f9ee4df9c9d5df2cd4d56cb650d2f6
e770a75f0009dbe673ffec6b02754617
f4f9b10b461ab19899ea725268e7d27b
080db89181a8ca577b178981958a0e89
86c42cdadcc2a7253c9d182434e2f37e
2a1f6cc90dc683069ab2e3b831d57c1c
3b2c94ecaf1ebbeed8e6e3618cb4fcee
1761f2748e8fe08a0dc83ba4d95d9ff5
8e7982d41aba5cd957a48a844b91ceee
e5bbafbdbe7d41d2739c85ba23b64959
6ea88bd1f1a2e093571403c1dcfc1e42
81db862d29bddfd7de136c7bbae3ac4c
8f722575b40410d47388764df2eb204a
871d7667d2c30d02821a4adea06af659
4c76999e64b6f40bacce9babc4ad665b
398be117a45b9b566dbe8a1c76bfa20b
050cf51f4b4a6ae15ec4af7566e570ad
fe063543dfeed3b47783c0728f36a308
24d8650d95d29f4a842cf52ea69e7f81
a36c1ecf90a7c595b7d363dffdcc0393
871284436e7bb1a6d93ee56261c67f66
fd597e0e597fe14fa9d05c087affcc11
c6c3fd9677df7dce8baeeb245df81eb4
6cbc2020fcb798756a41d300494d4cb5
728df8bb98e6ccd433a5458a05966012
7d77331c9550726ffd8d544fe73de55b
d42da82adab22d501b9d2c38f3ede234
5868515401a6e1d663bf8ad66e98f315
3795d31beae63890e812adfd3974ded6
d55e10a28c8d9faa7c8e3f0913438221
66aa0078fa2f040a52164b434d113740
615642e2f995ef60565705a1d1b8c0b2
243272dcabe9d55da4fa05f0d6139edf
068c143dc345c9d484d07d9794742247
a0898c2b71029c6a634f8fd6ab24a0b1
a4acef8d919fbb72f61c86491dffa81a
1c83f733e35c1d65786c58926ff4a6e3
44a6b29f1a26c36af3c64e845086eafd
a333c68765d0d00d61f4963671e43a9d
e0239c5834f898fcfa18c2bb6097fe36
3df11d27fea6729851005f29186aa8d0
2ccd473616684cb86b43f3f8c91c781e
6094111cf43e4dce33424cf72102ed1b
32e6fbce44acc2e1a737253404ae1dfc
dfd0fb36ee16de34c8c05961f29ef136
4bd3a93b4874da9a0dc63ba032761787
b35123cf1afdba982529124b54742303
9143460933a9894bdf7a38e9cdfff484
396f296769a7ade27a87492a1e95e7bb
58d768152c169ae36238868e32a107b0
47728f645529fa89817c46e4a9a71e7d
e9d6a02fb758b36021ff5667fc55b54a
32454699c3bc4281571df3d3d75b62df
a7e9570ebe5f06940c4b051764070756
e349e76fb81645e59125d29fb0706ab8
1fa666f6f039f89a56b071c43e4a004d
5f58772c3613d70e0498a4ff99b6161a
a393618dcb86a3cf3b442efa5e4770ec
815c1c16a02ec6564caf7faf8bf46619
ed150d88fe43395607c1019509fc9c52
da24e619e2fc31e6759023cb025b384e
f33454ef6c482649af2a5d5c32d82366
e22c54a17ea2b26e845985adb11f11ac
a66a8738cac18f107133767812610bd5
f4c12dd946c0d7f4cbe025b41dee973a
571589bf7d9b40c972aa5a99fc92ce40
5f995d1ca51ebc03a0f05781fffee0fa
40d0e0ccd55d66a762910c8d63dd3569
af0cdb4a9b2caa4913d9e030b8839495
d4282dfb84a915eea04e5bb88c09539f
9c517707316667f27de11a1089d92f22
82fb45e83d1df28b130c6a48f8f60335
349e93adb4015208f975dee34fb61750
265c86809b7d93b8c1973a15dddca1a1
ddb6101b337e28fa590a370402aa50d7
1c5dcccc164bb75647b5ec474fd8cdcf
6c094c45e2fb416e4c7d2160e6b69c17
367a7760fb8c15c07082bfedc8d25c33
990fdaeab806f7092d5b52c8eae55ebc
f864fb67c4f40f46d316fbe50c372c3a
5df6d12db60d354e88df36af262fcae6
01e1c8db5bb93b0b80c033778a2a2cb2
3102bc6f4cd4d4b1702c54fdd1c807b6
89854a1b2d4bb700e09b746386e7dfe7
f15587cdac2361ba53f4b6e381050dfc
aea816c8ed8e49475b62cd50136746ac
25a46f6c28af1908d1c938fb9d253868
f3c083e479a48ba91dff751579780225
9651bda972aec6221ccf074ff3a275e0
883228f21f9de1b908ed237965eab067
8153ca0bd5d8f062c740912ef315a72c
b9d5fd14e174b68ba8843d0cf321d264
2a88ef7e3847bed4d24565131ceec499
1c77af6aba7e464b8db428a4cb14e732
e0aad647265ab0f23d2ed681cf36b39d
b8f067489e2f003f64f7be3db59fde03
f5cf17115595019ddc3b564d09161691
ad0044d9aeb3125563ff3feb8df65b97
e1431ff4d743e51bf02fb13d1562c092
93bc59ccb7631ec68aef2798099dc30b
c4dfea3eb53536a377f4813f6ddfbb99
c7fec969580e659d028ca51a717825b3
8095cc6508ade73e05dd396b940d6ef3
5cb1e2f6bce2454edfc8a85c3fc85d59
ae7199aaeb5994c011474326ea1b61b8
ec0c45761af17e6d4a129745d3847dfb
c1ed202691d6c9f98c1c1b91647a2849
5995b6d408993369df2c4f007370d280
814e3e121ef737790a8d744ab1c4dd69
a66851c5f555f67a9808918f642fde11
7644feb917579955167fdb90dadb0879
d2f0e71bea2dd0a6fb178c834997fa04
315fd38b2e818b3446cf53927ba3683f
3d0711fde92fb4f474800e399ce93eed
36e3f6ef69485b4609f2aaa92aa6c39a
65a00ebeaebb6320fb55497e3c48dd80
49c79bf25457b2f117af751f469d1739
9c3785f4d301a8154968dbc5e62d2387
23e7bed4e02149b7006e2ef79b3228a1
b4ebd69d5c5b4432043b83ebe02ef641
819ad6b6cfa9f4e2993b5f0f28114a59
8b037616ce0c0140c683f31b3fde01ec
e86c3a3e8f0a18c1d9ed62dcfdc1d86d
be27e3e8d04ac81851af9571cd296436
2d1b2fa9419a8abce313600450dabf26
fff1d37877fe395a3c65ed996eb6d2d4
1587d882655206b0d2cf789aa12a5ab5
0d94e3d43ace8b8c58ec3eb3295eebf5
0cb1c981054acc4a93f64fd1bf94fe74
be4310a85be1361fe922f183fbc39923
951d86d89303c9afff864e4ce9d3aa5e
1196d7298ff78168a125cd8ae487776a
bb61bded6125f5bfdb4f96f766d3edac
d09d376da5a98b77305cc5d7250e4eee
3f2196540ee1720122fbab86a4cd6102
16a3bca6e09c9c983b052ba6fc7a2dc0
31b49636730c5b8e6e099477633168c2
7702174d515618b827d57af11aa0e81e
428082c8913125ab011f84639ed83304
7804d55954365955f1e94375a7ed0954
166fa1bfedffd733e91b5e03b847452a
f46be4604b9a028dc44caa58fee6b424
7e094e39fed48bd103b2a345d50cec31
aa799c7790d318459c242035dc5396f5
f9e88bebb0d6d810fc35c74dc7849320
93bf0aecaa5b85aa5a4225210fa5d0fc
dc127bb19d5b66b15d3eb40c2c185aa7
849c90c13e419a2bc62818621731e4b1
50f8bb93642214fee92ca6398d3d51b8
d34b772e5e0e93b41aa15fe578ceb059
abd2b6979f06ccff43d5bd06be1cb807
f5b925b1a04875c2675d28633fa99b86
6134b224b45459977829c8cd690cfe2a
f18f0ead6ef94ee09559879c79c5c188
095ef08c1422066fbd1531338b6c5a9a
b69ef036286a0f11206b380f3cc1e6a4
6680fafa1c5a0b5fbb060e6d6734d8db
f7b017cafbbce71eead24a85a0f13abe
cad906e23191d13843fe9a8230868d01
65b34b6a01ce9b795d6ee717c12f3b22
9c86a89d51e8a06407a98a6e40e56ed0
fdfd837a488711d758dbad26a2e9afda
fa9f1df1204a6061ef08efeb0ede3050
9e1c9419b242b211a5282b7ce723647e
82929a0be76b24a74df760bb583d9224
bb3bed5b2ecee10ad3a1b2d0cb1f916a
d756f465d30fe8b05c0fd5af3b6b447a
4eb01c1820f72eed7928c582e5fb3f42
5217d76130020e2886e1e1431f462edd
35476891fb66dab5b88a3bc84797ae6f
d5dc519349f3e3b1b0373fd25c5c6369
421fd0efec27e31818601d973a8c1110
557edc3fce1f94ed24896fbdec881bbb
70b1c241aca99493ef746688b6058d59
2d5fdad7cc5f01566262ca688f07344a
8f867a8be2bab40fd0f319d85ec3f803
5a18e2e60a0fa6e2b5c9678948e0fb8b
dea1443d1ad0b40f6c8393bb52ce143c
d998915723e6e6d4e6b6d1e6575aa82c
18c2665d95223aa747333f9fa1e4898b
52ef901427dedc6b357c4a4241362d8a
9a5c6968738812ff2475eae6c8ff159c
721b172d9bfa25b05541ac9fba9ad898
ea0dea0f1c63c1ff6ad39ae010395db9
ba4b011a4a4eb599876267bdc9a8b668
c767ff4243d7502aeb65523d6c01754c
c359dcfb00888fc2a49ed9335726bb41
5d362a11609ae7313146506ec81500c5
322d63a389d1bb591808c3aa0326e643
1e9e166157aa30a0166d74bf191f408c
9006b387e7d96378417d6ec54a79ae90
fc45503d450963fba3f1d00d9a63a621
02a0dc40d13868a730155e5ef2aeb796
b4fc18dc19703a12607f36674bbadfdf
97b20a16233f3b1bb35f35510c3fd1a8
e04d0141c10b6aaa1471cbc262054885
7d1abdc0cbe2d18d99c33c112297f9ee
ac119087fa6e69a2f16d1a939c9a248f
d4dffde3ac7412690f36e808b4b7c70e
9cccba4e8b0835d074b0e235f1f02fc8
1ee5562f4a99314eefae8387122488cd
4f5cf8044e45c5f0176c90aa13cfb27b
de132e22a3ac1a2fc052a44360e40508
fd754d0c2531bcfc2f0eaafa27e5e139
ec3f66037d6cd27166c4c563feb58dc3
64c5249dd57dcd5fdb2fc1ef5b60313c
3a615a288fa8e2708a79fb4f81e1c0a7
b229c1771add95b5ca388d38a469d0fb
bbd6cd2748ac7001c504847a8edcbea6
094302d7359b476628eafee30ac060bb
e482d762f707c3594e055560b029cde8
757452182c09e23a3dc543b51f4c14f2
2b2333b0732a4fec05c20c753035c8db
65eed9256a8a091ce6b5125bb055edfa
b1e7bb33cb09a7bfa4c635a04d8f7779
ee3c7deeaa118ab94c762efe3295f6e7
cfa2b4ab4abf02faffdc0b4c2d21e9b8
3195cff89d5b0386c07063e5d89f3405
eda4c77a1eca6f173ab3ec82d7d2f03d
8206c18c51163fab4c2159bd0918f056
adfffdb1dc613cc6954bd9218f647e3c
82f53f9fc0920ad3dd87126b584e612d
3e9141d0ef661cb05661ffda6836cfb3
c86639ec4ea3675e4f908a454849a502
74dd83a6e60b643435c1a631ae434831
eb078a5652159e63414b8ce08ec3ef31
aeb36bc7acd66fc8316aa67140e982c6
7c260f030e4ed817f4834629b91541fe
b3842e5340cb4eac6eb75bb77ad3a745
1fdd4cc7a05671fb0d4b2827c1385a7d
938cb476995e7154f111407bcbc72fc0
c09f62eec8266fb2daf0a7f9560a4962
5b4a3d6b63acc4aa904386d444c1064c
63ce4a240f44461b3daf81f01d8e8190
80fef8bbe1cdc7f3bfa00326a5a19d15
98c2510d810cef52fd79b9c431829c07
fd964224263e1ccfb8900f35e83eaf88
73930781d5b0059da83a44f5aea1b791
078e1a61bfe95ce3a5852052e675663a
d533369e27b2b359936c36a1eb7aa2cc
6460210161703258a6429c461dd2c2a4
a49cdfd466feb9c34add02cd64b52a6c
c2af1db60b746bcf5181590cd8612d2e
80138b8721aef925b46fb0934db27038
0914c2d5b5461c549b0d221a55f900ee
82f2441c1d7b6bb5947d323e61f6d502
75b49772b1f80e42360c9f2326e01df6
14ddc13e93a4ebac789aad4d0d671819
48a08b4568218d69fd2f65a0f2e5c7d0
60c1f72510aaa96236413c98e3af944d
1fd1c98409026573ba1bcfeac919713a
7179def3284fe03d75e1ea5b2b056e0c
7b30bd53288c7db2046bdf8e14a13d9c
6a1eeb9da4e571d726f825e1b08ad6ea
7b8224962b7a539ed0bbce5d03ceb209
143c4029ab8c5d38d6202ab009d61182
f7d5f5d1729a3b147eeff59d65e1a67b
e0bc4982675849ec84dd7f926667da2d
b33d8b3da0ca538ad6379085468254f5
2b3a7d581d009cdd3c2ed63bc849f035
84ba7bce249f825c8ac8e8d37d909bed
7b2c0c85d6c69a959023b1a78df563f7
688a28cf78d3e32e9ab99e7f67935e3d
4d035cf27db1bd8bc5ea27baea94cdf8
fe2e05b2fbae1269fb0bab02e2f636df
be5764e739c15ec6043815a0bce0492d
2443223abb6b965de519b2d73eba6853
06098938795e86404230ae6f78008255
28a197d5df0aa708da09a40950860332
79829ca7405892b15729a8e9a953cb5e
bd7909343741bb385beaeb97619a7104
0b958ac54edd406a7ffbb2771f3f728e
aa514476b903fab0e8cdf589a56ce015
41c8297ae59a7b6b4f657467edf3b1f3
793b458d93c8140741c3b2844ffcf110
58c8c89284f2526746120b42234f3825
5747ab4106b6f500e56eb373649a32fb
fd03a204d891b6a03f0b029dd56d8e97
9c990e0cda379f6b13ffecf7a8979661
28c08a02d39ba216788b382be2004c6d
6058f133be3e970bdae8154822744bc2
f3fc31d1b1456c0673d4e035a6981fea
38230c87e83e14e00f83d6dec25223b8
ddda882b4eeeaa6a6dcb30565d70cf03
16697711c51636170f2e1d2f96169203
d7e15162a3410a619908c45d48946478
ee7c96156089cd6deffcc711915ab141
f6a3d2f7082b5ec7a36eb70dc067e8fa
3f03532ff03132c6ca3355886416c9b4
f98237ab530233da5f253f450b6de1b3
67d2ab5b9b3c5f3aecae142a2273eb98
f86d7d3fcfd80f1e058d2456f0cf59fd
8dc417518ef96b190e02b65d8b09a44a
f72b4bbb2e76c225a46a93e8f8e4d5af
2d416e6bb0d1d8cd4be65f5adab5f12e
325f6ff2e6d3d2acf858c24898adb53e
993061813ead8cd4bb8abd385a879002
bf6850b798b632c406ca8fb4feb08013
297887868e031ec16906a55d028efd69
bf74e2832b4b2c829c135c08f2bc48db
62dfd81ae946862159673a683e12c703
b27189322c14ea770e7bd91e1b635796
9b886de103f0e8ecf2e167423d00edee
367c80f43b5d9793e7016396cedcaf58
d25e53cc59f85609bd9f3d210e675df7
5d00cd9ff611244a32da535fa1965299
f9f30671f586dd9dfa430f7735136b7d
f81943ff99a65c535f720142c7c4d3df
1908a700e35a4d69eadbedab0fcbebd2
560d22af03217fdbe7e03622494d1328
877159965f84d379ad461703be644c3c
e934d63fdcc2e4160b1e284a63ddf639
3e5cde894ca1d30577511203f0f294c5
40b4d246e5791fc5e3fa5a7aaf45522e
13e968ba0fbcb4fe01ff2e616dbeaac5
31cffbc7bf385ffac82c2365ddc34a00
208e807ec2dd612b9ef96fbf31b2240b
73739dfc62dd558b2e5f053512eb2925
9d689788ffab7ff404155b9a74a1e1b5
1703d9ded0478e3ce832fdfd0d2ab546
5dfc7011bb51eb20aac9e914af284209
ab6a6ee72da9ef1ac11e233dddbbb47a
42a73a7053e59890a4b2f3b2e3b7339d
fafbd3ae1c214a66c0894ee4b495df33
9ce2e6a196dc7a7764fd5bb29342c761
154806def621444a56fa5477bb138240
fcf449e5b3ac32e7db84de7e5e7a4c56
cfeb3a0e0a740cf188b4786b8e253a71
662a58bee5fc2c1c6285bf7e51d78b21
7b35d44d1bf13cb0756c984ebc928c10
2065802a17e0640777d5c4d2dc825d9f
3a503573c3ff0860c68728bc530c295c
2b44ef96264c454172da45b5780de15e
44b0d7b2b868ba33619ab1ca551c13ca
2fde2d9b71ea53c4113e2b4740b0c38a
a8768434a8c1c72c1f1486bfe642d2e0
bbfc5f6d2938a5378509c0b5bea38705
b0a98e78c2ca220f240b45ceb087bde9
b2d1ed7e2236f0c6a9116642dffe07ac
8cb0bd380a048fbd9e8b980fbcfc87da
738fc7c10b1924bfd2ea2865a5aa2633
63a72d56f4a0df26ce8e166892a0b0af
908290bb47e2cddb229b3cdd652e80c2
d313d74a0dcf368a7853daf55e7a445d
4705ef368cd036516ed2f5e99747cf19
5b5ed81999d85150feab4b50393474e6
daf553ea40c3f5502d9cece21b7ee70a
7d94b650af046f259997ca80163d19fc
cb0153e24f215c6b4fd0ebf3bd2668dd
2447cb02a58bcf23ae8f487501e88085
b18f9e234480052e460a222d2a062c30
732134795adb6f6883e9cc86c9964cd8
9da2f7b2101802014904ca7d87332cfe
8f5e4d532f77258b629148e8f7bbfb30
c4d7161a17a141d26f4313502730bb09
f6a78d94c81efa8cf0c8fc56959a6db2
0f713b0bc0565b80461048f83b1f0071
8aafbd4ad40793ce5f445528c215d8e5
7c71cf0f6276a1e78c05c2ca4ec2022c
b4a394929c368a604d765784c4d819b4
3287396f17191174ed52d3b5670bf105
406373b27b341bcf65e815a399e5b2f6
78dbfa4d5f7207fb4c9bff7eea7208bd
05395b426c83e56411edb02098bd96b6
96fb2767d440b43a9e91f5c4cac02676
fef0258d9ea476273948ebdf35405836
52f49ca71b9637f0c230d43d239951ca
881dba4dc637d4e30f82f2d48ea02093
8073b16cc6d4d7bc1fe51e5d0108e300
c709dd2e4c446c240cd1926438d72fb4
23a356b89a7dcc7cd5af0c458055b672
93f5593f3338620665dde12c0001ab30
cb453ab034682dbf62a37d0bfd646db7
32d002bb2707a0614e68c630328c59de
f1ea402b837c24691d14015ed4ff7c03
c6246d735f958b83fe4db5dbb48def75
3cafd2d63ae9e68f417bec345394de2d
b9b22b87ff067e67b126f8bbbece7523
722830be2c570cb3d68a5ce1434765f8
35dacd5a2a3372b0bcde088dc974eab4
fbb0df2f41e2caf6cebc337a1ce00efe
2bdb5b88299d0365dffa4af9354b38b8
6a845c6f27b81607c8d3ddfc001f0209
5b1616897addd5230a4b914622606714
aea3bf2d7844d45baa15c8cc6a8ca292
4875eea7f8ae31fda0268db6ee6b4494
a5361868f51bd7636516d6193efe1df7
1afe12821c9a8e9a0dfa9f70f37bba17
56dd8a183621db03942b146cdf7297c8
80c025a643c8ec94a9d2631bc724b6ca
74690561ec596ae445cac4098f8473ce
4cf574a6662b9b1cc3247df5db488b37
735947facef3f583f7409f9ea3cd0475
2067bd36379108e1bdc2e0ab39c9d9f3
bce6cf692658823abcabd498810551e7
2ac433a5bbd0367fc5923514426ebbeb
843c8077d91d7a0af930ef0bcc1d5a0d
e7dbedfac3b29c909297bc0dc7586715
aa9a87c9ab5ec3264e42298149c0dde0
5aea9e4dde2db1832f11311c6d015481
1c82ba1e3febc3826a2a6f37ec2b5416
9f6c5c11ffb7444d07c641966e99dd3b
eafc92a6d09d49fb2066e1d77fc76e42
f970c77d91a1b69fe7d8f2f7f6ae725f
e44aa1d0a9f5e2000cccdf374c81b1de
ac92844302336f2580e8b648005cf5c2
d3befdd4c647c29b388e38bc3afd21c4
f586934caa1c65603579d3e18984f1cb
d3e2cd20cf39ba8de2bbb59d96ac103b
a4f8f680b1723af385b82e0c7eb9bbec
d0e3d1b4628f7964060972afcd7bf1e2
82ab4661026e44d7cf2898c742c5f322
dc37c16489a18725f419d44c3703fd6b
721d32f35e8063df0f2ad7ba76072b4d
17bf3503c766b88fd1884fcab1cb9fb1
76e93363d2c26579773875f0758ca128
e9c47b9ba50532d9a01fa21997d68ec3
7e3b8f2d3b0c4bdc6f5c4f33d58208ba
3c4a2bbf81cefb69b24038639a5ffbdb
6306fc540523d5dab1bb7a04b2253cbf
37ee50ec1577efdfeae0cf25c358820a
7797b9751da65fa1ff5df9706f3c6d91
f71eb029bf8a6b1ad350bd6b6f3b64d3
2406e3630b248b9de04d0e022eac98b7
0a5ccf379cdfeb83332f371aa175d514
70fb4d4cfbc4d3486e1aa0a5f617dda9
8524a992dd2e9d108f9b5a89b92d87ba
7be13483176e186be7699eac9e7f5196
5a96b969559c7f6e83f42c2edd7823be
3e1c800283dabf7c39b8367d3a2506d4
b8121eb91618cced8b722a2a394f472f
f8552c23936fe39e54638b131e5508c7
bd6ea6d51768b51b0f429b329888964e
a27c8c3c03e4e37586c4198ecefec033
f61fa8a935b0461657cd88438073687d
d5d602d494b4d542c5eca4f6a5c790e2
ab59fd449d60378b921c83666b060991
358156db171df4d54de81a18fa916978
4611ba7064b350ec101af23ca9220894
534c4ac83f43f2d14daf271c70f8577b
69094e997fa3b04e122ee3152bd9c734
076fb2562506f3011dcc27b1afba1070
7a85a4fd769424f9cd9c139f8b9080b6
a9f71eaf2e3d1bbc6033e51f5ce808c4
edad76590745b40fe11f07cfc91a884b
52e687c5624eb59d609a1a1ac5e4d0e4
2fc4f351c45019dd5945a71b96d9298c
ccafd813b1eb1405c56b72eabfd477b2
e9fd0d2bd525933bbb59b15a0b95d560
dbac6a2aa9e39c78cb5e60b7ad4f53b3
0aea060e7e27301db2c9d51e0e85bd54
85bc14cb9a5073ea310fce094f03f3d4
39434bbe864006ab01d4877e76b30424
0092376c53f2e6df6ed5d53de1cdc6d2
e987185759d7bd9ace036dcb97db4146
cf94411730c65f24195b450b5e672e25
94533a8225eee9869c6a3288e181c56a
b78067be8c9fc50d95e08c3d2e0a1e56
151750a1fe1a017aaa93b32a8a198d85
1e36474f7c4e7a4b5035db5b273735af
a3d0e3a7e036ae2f9b193a946dba59ba
e50f81894c641bb54d3ca46f7e705f0a
bd575f980624b5f43eb22aefc9cbff1d
ec20bae1d9d65f9dd0ab92ec3ce40b67
777e89569b7e788af420c2ca2572ed4e
6495fa6c6f2602cffe2c51903fa48851
d589381582fdc44faa387e5d8a6e4091
9dd3f6173fad79d300e030fe19b31ec1
8db0ae7d731a263425cac17d5577aba2
4c9c215c0e673f349772445e04c41b06
2f72b5fefa95c56d56097e75743fc446
34e82e983f4df10d9bd6dbdb3081a947
d844e3e12fc6ef25cb5193f2afe2b902
fe9c606dd354f8266dc012d69688308b
4f4de98d3dc53a7502078511a03d3b15
c1b9e7dae3cac940417dc37bf2f083b0
0ea36270a3827f71e578c1476dae5c0b
dae66333fbda58128d26d4d8604ec96e
c245c3a8e4fb6a2ea9e55fd77ce70ed3
56b636df7dcc298115ff9f589448d2bf
5e799b92dc241bffcd1ce2a3d0f433f7
a46dde12d53a5e254ead54c0356cc550
c1b07351c07bfef01b1c2913561c02ee
fa279b3d65e0ee58eac4de0cddffcbf3
e58ac6e74856d3cb61a3333c131763bc
034fa20956f5ba4f76dfe6680bf0cf44
b1564b88123653cafb8f6593c61876de
9448e960a518cdb197102023852d7dbf
6f31f06460fb83668c494d1f0f97477e
3fd84604e6300bc7613baefab49a707c
50191276376f524f899334b582a6f0f1
be3d26598f17c4c9796ecb991d9c2e5e
55811f7d0e14a95169e8a048bf141ecd
56fefe511878bcd1d8da05f8580d29fd
456a0ac00551070efdf43011d5e1c3bd
4b7d3425a5dc148d395f5954875e2e6f
e5c403f4480de397ace7053cb21b0fc8
3f670da22c7c18f72e6d32b31f7cf419
f81207643efab94bb5b6839028bbbf9b
c03f1849ac475ec129e76660812807f8
77bed74d046eee5e66d9f311ffe76fc5
9e99121c0384c880affdec78919a1364
6574a001e541faad208be69e2e825558
65db9ec3d9dac30eaea0ac84f33fe6f5
1a50ba3ef7a7143b7983e93b0f2da21f
a55140478b2ddfd0c078a27b958d06e1
7ded673eb9c7d54a0a0d6f3c48e1b0d2
51f091d69a15e975c7e80b4e75e649f8
005d3b2a0039835c73992f2670f187a6
413579c721906ccf49ee4c81d6e3d20d
d4684cd52bcbb1713b501c8a7164cb0b
92475ab90f432a2317575a0c80e3f06c
ce37c87b54c8851eba4f18c520ca7d24
518e31904432dbc37e8efe607da1b743
80343fbea319621247ca7b185912a3ae
200f8058677bf889be3aac09179dabcf
d8d968746f33eaf24dd2903285ddf4a6
eb40e8cd4ab9a945a4c4c81bd7d3a083
7a187e52892a2884106389b20b9816dd
b44807dbac66db90f0734cc5abb400b6
dfeaf58b553b845191f8b9302be59215
b2b14a227a02e3f955057609fd030f10
9e0433e0829674acd679e30605f9256e
a47425f89ef1bd1472ae4e7adb2a15b3
2d4bf33224189093a0cab1b9d94f8702
374e00576be23d8847dcc2818de0d798
0bae81b04203d92cac46ea5032b99931
3e4d978fdac1a991163efb731e7568f0
47a03536e6a6d0255362cf0da9f8b122
63e95f52ccbd234eb9849d64946d13b0
2eeb8923404074459d95a640b5158a91
86ff65242541055878799ab009addc64
a0b34b10685bd2ee96bc19a7694a0344
a07ebd88d5dc44b4d29ba767194a2fe5
604bba7d75e879941ce60f0320015cbe
a8ed0f34cfefa6677f69668ed858bd7d
755784aee3dd427bbd33ea1bad89b0f0
c891c563c1b813103246641644bf108a
018b5ec110d83bc4ce46cfa67de2a6ca
5f4cb1d43c922f7cc5a72c2a334edd5f
d8523c367b58f9afcbe5afd99168ec18
e01e7410a16c6512b78547ca33cd324a
0d613eeecc6c63a888cf1d5eeab511ab
558019dfb6f9caffc75d5a55c582fc30
e587ef67c092f3e7a31c36d6c3bb5c07
2cb0db4edea22038e6585cb4932f3e9d
43422c9490551ae6cf2e09ff0e04fe55
1f640fb40462cc2130630ed80d93edba
6b452738dcf94f7df4a86e8d985beb9b
6e46bfb42ea8fad2b8316423ae783ffb
3242e2982b6d6441bc219a1cb0ded3b6
12405c13a378af8b6bf80946a1b9ea22
2f1be2ad4c36d9266f75ce7a60ffa317
a87b920748d3f1af3c95ca1b34c8a631
aed71b8fc6cf6a12f0caae91967e8fb3
d3a279c42311ac2fdd8000d4226ee39e
5d636c6ed1f6012ec6e555fc752b752f
be1f1db898bbd93db9517e0c5245bb72
5ec3f00655a67207159edad108dc8247
ded10039d5d41f50c2099cde1f6ed5fd
e301e0353e31050d33af502fe2518a78
cc732cb4feff8d43b5c59dfb679e72d4
b283606bacfd1056933361ff2798d6e6
92c569f7cdac82cb693a6ce86dbffff1
956b8ae58d5ff8bbb2d0fa020dce43d1
64b6cc49e8887292911a0e6fc2558098
af34e09613d2269a34574964cd353a74
0cb1aca73b070039d4a2c41eaedc3a5b
46f0c6a35c51ddec0a292ebe8fe9933f
7f3ef8e701d37a0b384dc1d07a9dc274
27fbfdeab1af4898611d1911342ea587
a4976a8060d770e61564e4d6ee46ef57
980da0b0a4b8e8ce9c33fb76b159c4ab
24fc9f1de2fe118b11ece68113e40387
510f9bbf24a034efb68b172a6a8cd6a7
f881f4d82c264b6eef8be11f012087dd
27cbf848f3a1afe7492e5d49c814fd7c
c7273eeef92128eedf056689ea7decb3
e6637d51428c96e5b0d2a5b32b56ac90
2ff77a76bc61f5e60a9d51f70bb764c2
ea52bad4f759ae520db4d0ec6ed5aef3
4ca6c7ee585e0744901ffd747dea889d
edfd6a5e97a98aa9ffe085a24c551203
d25cc7ecc39c584729beee9b2308835c
e68200a9c5dd8f0e49cde17855ae84d1
55bb57f06a4d32253714dcac5a5f56a3
af275f4353808d46d010e09401126ce8
e3495f6703465f07d53099d2439b3f9e
72d29e71911e893b48304443ed609035
c1423c32035e409e198f619671bba773
9b3b906371ec387f9a880bf2e253d0a1
c97d8a27b536dcba29cc6043c47d0b12
3cd971a197953c51b0d4bdcb906fb549
e9112e0edd878beccafe470dbb8323be
99f6d8b81840f1041d15e1aac735c05e
f2288abdb36abbec8a7ee11df176ac07
792d16576a3738d12a56fd4e8f91d792
aa9ca91124b1a0ca361aa832f678885f
c435cde6709f8255bb16f7c87167fedc
469dc003065c00ab174fc7983dc62493
ffd6ca184465d774e2a7a672798a212a
a7d845de9fda06e965c39db3acc60c31
4eeac7873ed2cc938103498fcb388421
e6cb3759ac386f075a9ba23cea570b14
5ef72425618ab7805069ef2d7b5adbfd
f671f45fb3f53616bcceb35201537c2c
9ad671236b3f666ad952ca12940eb3df
f90a532944c0e3d3c81afa2994ea437a
b6122722712c1aea88be1eca68afa09c
c3369849501bf7558a4f00127aa866fc
0891215b86c44ea4d94667269ebd66e3
9effff18cd720e4b3dd1fcdabadced11
19e37fdba09af7b52548902905e5fd65
7658915f1d7d7acebee311d43234896f
829c8304f9bcfa06c904227604a56f3f
bc8e0e29478db9e3307625e14d1b9b41
7badce01c08be4fcff6549855f3ec0f8
64af5e49298beb2b2ac3a7c5851d8e8f
fa75fb5b738c7748df98f214a39af2c6
bcf737111ef71a0250bde6f65291c3f9
7b37174f910247fc531507895ed96920
c6ae98833d94cdb1f3e8a18e79a909f0
