﻿c07f25de75ece89a47ba8be1cca07cfb
463bb9e73e152554e43e2a2e8d768367
8720f50fb906156e4650be38eb2e2b4f
134aadd8a5b1aa70a1498d199a8d4fcb
3853e7b194a07f9a9d5c4c39a0548b70
a68e0df6a429be9240baf4f60a4abb62
9737ad3c50969606e8e5163e297bce4e
40eff8e10357d722a28da4ce7891b05e
975235c469fedd2abd33af3d7b103857
418a6825e6e9e26f916014f157ac924b
b3a1b5cb5a67abaeb10aae4553d17a58
1d0d1d43285fc7126e47bc9de059b2a7
7a742f3f8f8db4434f7df6cfd7573215
de8e0fa122334d81e4d98b13ae8bbe8e
575d348cf76e96f2cf3ea7e5e36ada8c
7ca812db97887f79e5c61bff2db6d0a9
40a9e88e7ff5e7d5ec791c7f43309784
e2ca8cf7028b8838244a68a3e5da73f9
9b042a83825a0ee7ba14dca8244b556a
a1f19c19e69dc811a7cbae82a4429a2c
2f0c6b677a3d96a828f2b4949d541add
17866365f569d5fc39cbceb872d31df5
3f3a9ddadd24bea193eacb5eee8b3309
81af6be360f0d5ce8ff122407a8474b6
7a584cb089a70416a248e55a1861981f
b0005f672788c3527e4d5a8f1e374acd
b0cb391b3d0103d63a01213118f1e0ee
2a679b9ce276bb37705ada8f66bbfb99
5b7e9ea1b5bc4c2ced2b4f594b64fef8
a41d439d883668f4db1abcccb9f5a25e
1ed64becf9723518624120f1bf2e9d2e
3b2dda35c0d8d101cc618d49b6bf5938
addc606e352c670836f724ba4660de84
13de8b47d0d7f62586e658767be0972d
bae69df58fe319414589ef9df4ede437
229eb9b2efa747c832249a2bc3e1395c
e2a40c26ab055ef3ff20dbf877a1f432
d6460f254d9bc36044d616a28c230ef6
110169a629bb9c9e6c762e3914a0ddfe
ac0bbac75ed2a259d870ee14df96f467
3ece7bbad6ce851d9994bbf1a7ed32fd
5f570202e98e9011e1e3671a3f74a13b
0a0039f51ca8b58a13e6273707f53759
f09bc4a75928e86c0a130d5d41f285d9
f60bce88be2d0d681d2cabab0503451c
de0108f78ffc3129850ae352ad29152c
d6935c34f936e8b56eae650f6b90ba91
e4793b7ae17bf47dec9c831b646cfb2f
bc4ddad05d5d42a3a5671f45a9113629
f7e490fcf522611bc23bb54399127c34
21efad0b23c1e2d123d966f9376b010b
32474a2e70a569fd249aac46b0e5ff91
b0b3c9fa4803553a7760f428a2437276
67000dc419f787a21b9531640ead4070
0ef84729a96607915dcae9f7eed16d3e
a47a036b55d3fbec4ea995b277fd4b10
5bdfbe5fcab4e6b7a95d879babdb988c
21320463e5a7efef476eca09de654b56
40e1ce9d313d995b76bc2127bc577df8
773207579faacbc18f7990753384be7f
7944e0d4ab6804bd45ceb1434001a2e8
c883ded72e336419b3246eaf6c488e4e
1f093d0f160c0420a40354ba8e14b17c
ba66be32a0b17bbb75940b888b51898f
28c0f09e81e639d88198d1be833c4b58
086adef696af78450cbec3731561819f
cf6c009e6f95f9355fdba025599ce9cc
219fb5fde398e36d32aca3ca8697a7b9
16cb186c7f5095654f131ce13fbb0e83
d8e742a4c3f3c72012ca2b63685a507e
5cf66b517105659752a238775fd4cb3b
f2b7c70416a15c22a700915b256186a7
2cf96d354c336294259fe172f707802b
9b26e16245d0af9b777f91b41474f232
0350b00395a65204d3c3b92be55108e9
d0ae111a814e2a33b29354fd2309ae6a
65ad3c52d15d61842b1bc7c4fdf64ae7
0fefc5c6fc3087bbad2f5cf17f5da74d
260a5abe8f015335cdb32e3338c322f9
0e613da211004ec4544ce3a2d3f328e9
0a8d6f3d9116e2782a06bfd3536a301b
086a6c6d24897e1da0502c5270105f32
81a34bbe2b7d8288bf11cf39f246fff9
c528925d24aa41ae2fc84342731f63b7
a0371ed89a4d5d925c377804d0ac51b1
bd6c929119da28b3ae30b180cc67e87c
da56cecf1b4c5e85fc1419386f61200e
79a518702ea99605f3357f21ac8f83cf
24e07c6ab831498817e3caf9501cab6a
55152107b0aea15b0c400d78e010d0aa
34fee7685e6e3f06524b8c38b7b747f1
63326b4aa0c22b388dedadcba0d528bb
ba37ab602a1c69a544ad380e56e4af44
7436be0e40fa572814e61028e02070b1
1b7b79c115cef3d5a339e210e9c99621
bc67ccc9cc2e6ede089c0c5473961f2e
0c660b6bc0f61647f7f17a937d7357b9
e2d4e4d612ca20654244c82ae0623ff3
5dafe5599c53089666ea23f405b84a1f
7c8975e4eb109d54cd6acfe09c2d8e58
6330f43367f396942fb82d3b09ee3363
ac33bef675bacb627f61b90bac7a38f9
43df80a8c81586bf8767451686b0fb69
0779c0e1af63c4f071ca8e4bc1f49a4a
a34e89eaca543cbf89ddba1c48fef150
2c548ac4a6551b2ac593741844a3241a
3919a08e46995e9c103f2c19408f3083
bd13bc07bf98e10a3b18288dfbfccf5e
f74da83c7e599624ee99a2ae001c3442
cc4952f633b39bb7a33b47f12f2bc58b
a7ee7b4b6bb9588a6242027b05a61e4a
46922c60492042a6d712891fc5d7e57a
9873dff08e43b43cfef6f393cd771f63
417d7e7f1567d4d52fe96aae96ee3400
74bce4fd3ee5e017cf572f2fc65a9a3b
82cdfe9d2c74935f0a40b685f03e18ae
4db953e57e38c9b2b3cd832354446a51
7f961762d54f12c4bfea5f225806b40b
aa95d236d6678ff020b3bc6d75fde9af
1e1ffbcc0c0f44b20061766311cc6e9a
eb717b3459d639f3b7f09a3f3f3345a8
505c72c3cd659261d53d0ec38580b21a
612d638faa8149665f2720ab29a88638
4dec6de034e6e03a3589c9a31a3f8323
84c9aaed0e7e1d5ea4f722128eee2421
952f76190dd57e66ecd3ff12b704345d
f99826b830ed3dfd101a2a722cd6751f
a0495de69d970c63878ed1a99e786990
8f6e594c20996ffa48d7b4a9f91b07eb
65ac5efe1a1c985a25dc622ee355cc03
ddcc1c15e55885a127e6e15531690c4f
05dcc768ca3abfdde457d324d551d23e
e006892ffd6d320f50b3646377ced9ce
cb1d817ce8007550247aac8ddeec8691
3ea2337904cead2100f3691586e3f312
8da27e4aa402dd8888f34994b9daa373
262689b748abe9b5bc3142d5c5ef0c19
7b0dd4700b2bd4233f8c879a07cc13b9
69c2055fd05c6554629521597df4f5bf
c4517124e873268dafe90923035f795a
7de066273d46c5bacf9d00b71b3110d9
1e5b1d730ea1adc9bf1b620820d71a91
1536608ca3dcaa6c6b40441479578054
064e504ea310add11d0e842b5602ea8a
795800d9103851e9141c368ac000e2cf
0a3f6d79997870fdb736fa283facd692
2d2b89f7ed8630c12b4222e8ec9ccdb9
fe6622bb7af3ed2ddcd0c10ae2b1e63b
937b1e2baceac0e93e94714cef3f6a28
7bf0884509c6c8458704119a2ddabffe
f4cae44102f0541630254a84bacc6b45
88274f1ffb818950e6b4b7c5f41f814c
e733c2da02d71e9536fd297fcd94dd66
f9c27e827c98cc3056603f58c1eb64f7
842c9c062dd35c02340088835d5c0eaa
6d7cf533865d0cdd118959130eccb1ff
d66ed2f99deba4616962c1d8768a5b35
5246c6849a59aaafa20653e940124398
8d2c1cc2fc466a4728952c9291bc3d5a
cfb6d97c5c6ce877fc06aa313fa18a8c
1ba59603305bafa765351e0c6543ec72
410377c68cfa63019c1d8cc1f7ef07c8
0b1a1ced4af1c2d9f15ed6d36531b9e5
62eec661bfe33d4d4022783127d713e3
77aa9158a184edfe8d363458c88aeeb2
e7d36de2857814b23078129f3333a245
4853846d3ef9a05962538c4227e86f23
cd24bc0476b2be9e84cdc7e1293c8040
639d284f8721fd18be560041df81abda
9c859b71c21511845e3541d6215bb67e
dda2d372e2ee4ba04f52c1e621b178b7
cd2e2cf9796095d995d17966d7b7d3fb
dd1ecd20439da621e4d0cf44b1bfcdfa
716974594ed0b6fa2609e442a59686e7
7f4bc59559311f3fb41efdf0de717434
2628167023b368f2a531d6b771ec6ea7
c57560bf27b44d51d9f6511fb409c007
a40ad58b4e9539c3b20f84085a4ec877
0d3558a4c34e8c7beb2249e2614a45db
4ecc4c4f6ed968c412bee8f5542fa19d
85a732560003799a8fdbc09e53854b9e
c6f57545f9b7951cb6461483a97dc86b
4153c6c76f68704366114a0fcce93509
15e35663dab1c4676b0d7783c396c0af
beb7074860c0a8b96c42a2c165bbb030
096827d93bae93a86f50ec157c7e63a9
24162d247d10fa6ed319b8142839e023
be4c67dc56fcf0a3356a929e22796f35
854c4dccea4f3e1456d5ee685217219d
fb9bab3a780b37a711889a17858c4c36
04b30be8f5b961d42191cfb3946a5c60
c028688208dec470332a51c23aebf1af
a264f4fb3b740f29043a5465d85cf020
1b75f5329c038f9050b2a88deb3272e4
b3ffa35c9b664cbfcd43ca614bc1cac5
7e7f07da5d45ac953cfebca43a0ccf32
851cd3c3703c30ee2ded56501edf31d1
2a03863e2e051904ee4a8c6649d31041
d15e7bb3b1850e24f768bf5026aef64b
95a2bda268910a16aecf8526f18549a7
c5c264f7e45fb857872fc7ad703746ab
41a353dadbd63e734a86b5569f5b19cc
c3d30fe23cea4345630991819fb8ed1e
324733b9c375db978cf066085f71ef01
5fb605a97fd5d0f685e0fdf03e47c092
ebfc5747963a168667e802db98c0da7b
d45505814997bc04500077fba282000f
65f608656403c0f5524b58a639fbaa6e
a342095b513603ac5f4592022e34fe59
f35eb58e15e7e29d53715ebcb539c86a
032a52f3eb018e06251e9374e76de4f0
85c13dca4fb62d5f8b6a4baf1b839004
721566410807e76666a5c5954555d832
63ee0d8550b9838969c15e8f476f570d
d6c1c345ea0d20c52e2c99630f46e3bb
1f2a4ab5f82e6c66dccf5e8f0c680537
d4d8941132238c13e100354376ed56bc
ac9fe138d1d047b75eddc3967762b6ae
4800f2a3b2eae5156b8c6e09000a844c
ac0ee7cd1090ea35400213e1dde1be31
07950c8e81e97e2785c918ad68f1a5af
fda7c71d6a43d14f05078339dda58f08
a285d3300170cb2dd3f1c0b12dd818b1
92eb4d0095ac4e20266e7184fbc822ec
5e8de8550d0756f53e07f5e4ea177934
450ab17a9c6243042b7ae69a201c960b
c4fd3aa8b93f291f4ec51fe5639cd36b
dd70d88296a76acb2cbbd4574f887071
89f2d43517952b6b7933c5da0e71f75d
316c863d72a054570d3c782358e64266
88c002c6a86726c12c0387a05d20f84a
6ab9b16c44873f17a914fad542eb97c6
4eaacfcd99a0d154d028faf57978029f
875910bda66e75a24d53d21bbaffb2b8
422a1e2d6c1b5a0590c106bcb01a32ff
dab93fd7c783aeb2c6d5d6d99789618c
b330ff625f2666cab5bf12934e299a2b
9d45ff50299dd728098f6c024eb9a051
04251683b6ef3c6d24352f7644f1ff36
1b1e59b95e767c8049306b30a28cdaaf
38efa173d44617be44bc5cee6f6b4639
8139dbcaaa6f1d48b2d303f48db8994c
58365a30cf1e6718366ad7c177823289
57418fd7237e616313ca8249a782880e
b9793136e2616fdff4a0bfe205eb1193
06c218f5e1a2e79a53814a74cca4e206
fac92b49eb76f77baab0a198863fa855
bd1853aa89c37bfcf0f0da545ba3d3c7
de4bf3e4e7bd7d94c07027380a23dfd3
aa4cb6a319001b0c54491457ee6edaa2
898cba0668fa1280d0a0d6ba6a99b69d
6eaea815aef6283aa297ab9e4f60f306
6a29c27e1f086b8c8ea574554fbfc16f
d295bac967e1dbc74c1752cc8a188948
bae94bc6ca13e33b511a0abac318ba15
cd948ffd45c1c299b1fc1739b05e06ab
618d7908dc6f6cdab5c6f0bbcee33615
4a314f1e5628d688ab3ffab74f9060e3
74e155921abe4e19617ab82d55099525
60db144a0e8a26edd31c4423e6721643
82987720fd7ce83d3f6726d93d8e4668
b6982b225fdeb8cf63a50fc1fe5a5d5d
9f3c8c4e9c8bfb7bfd5361b52b2d3c11
bdfeac2dd05bbf2a45543d7b1b001161
b61c42c2d27d54c9411759c094ebc782
08f65ed5bdfd4f46dbde4092182c1100
22f894e1bf57fa38eeb3c0f04363d851
6675f7c29f60684ba31c990335a23647
6c5eea9cf91babb02b8b5556f408e2c1
01ecad235d367b1a482dbde94a526077
32a0fc5a99aa2032cfe488717a363783
f026d5191cb92d744a18db93f97ce310
0914d852669c8790873bf8305f98cc85
b1d9d6600fff9b199845d703f112c937
18bff566d3a485e009dbfa24455b39e2
179899c0756091e81e9588ba40a6a27f
6fba081ac6c8a359cd168d012b7f04ca
77a2c86593f1d555cc4c916f682f3177
4587def5451b03540ed5145ff4e092e1
0d550ef4a0995d3ff2506ca82d365cbf
bbb8e73bda7663caeb017aea09460163
3c50c147431a474fe998154a75ce2e03
94aa690fe2035d105bd0abf7f4f90b41
32fb92b1c2a3864760babcb8ba0e6555
4733f62f7ff77d2ff09ed3f11ff38d7e
d1f210e6b97f67f8a3515a1687eba8de
58a262c80e40b247d9fc0efe2bebae21
71874c4e8e47322d58718d088e34a95a
550ac2ac6b79aa7ee24ff66d37c7bbf4
1688c912f06c9dab754d14005037f172
5ca3e30eaebd6f4a6a878b1f3f97f194
ba320f85cb6a26f1f7fe9a2917a06a25
da8dcf3fcca69b764efcfa621bebc22b
27fd60c3e56794986531786228f6b8c5
1571da4a2a585aa74f4d4e23d8626576
23f75e631324d8a62b2c563ed8fce10b
a39b75dd241e3a360bf7abbcfa35a2b1
c9da2856c7c7c03ac2105e3d28250f6c
4a2f315965687ba9eb3c6f04abf9557a
4530e58e90cd30b0c3e10d5838f70950
a15c9b87cbef65c41fe56701777d206e
069bc0a1fc237b2492119f676b1a8f1a
008f218768e6ba43ccde3efa466b3f80
e3a246bf08cbbd7104c93745479ceb6f
fa9c35ac47fcbc8342f5408ba2a498a6
8bf62bdbedf87043334c2ec4c3d8e70f
45c85588e867fea0d9f773bb106c817b
c9022287f494d42127ea5cf96b7d9d00
bd4d40a95f0196119ad5a190aea28e8c
13fa310b1c16f45aecf568ca82ebbf3e
21c719be4b0c67b8f85aea0c89867d67
e653b9333bf6852ecf46c3fe15a6c24f
75810ea606b2e3f9ccd23c47bb1b42f4
706a7cd742214076186e3ccb36ae1e2a
4610944e04f0eef509d8cacd97cb896a
076bd4d495f16291ce89fa8137256963
d303e6d68aaa21bb01138eb4a78a6479
a1027292dc9526c751e9fa48b13aeafb
8c03ac8903802212b87f8e657dde3df9
a2af6313f781abf236bcc5d843427cd3
970d0a43cdd21f9615afa4871957a12c
fe484c9023d6489cc4a1a8f762ffd243
ea3211e8237aea6cdaafbae0a4006c29
1039344e7e9f62d7535cc3f7f0bf9f67
314c74477ab811e3ead9013194469df0
703b12a8794664cbe47d5ad8e00838cc
b6c9bb7ee776c36f45b7ebefee73c4e6
17bf9d78592b59fd0c75adc84fc84e26
da37f2c11f26a562a7af0fd4cbb9baf1
be2b45fd300c4fb702e29219fee7316b
f414ad1d81472bf9dca92bdf4d70678b
213de391d9abe8faf2a97ad41380c036
1c14d48f84b5994263328f785f93070e
a8dd4a41638a3fe5d0493a126710d459
2c2ee5fa6748c8a1de0ad1b48fc16b55
820a93f12027e0f5d9c7598cae31e0ef
a792fc6f5d50b3987a0a9be9f46b8b02
cf9abd9e3608b53e2108a1667148ddb1
421f2915b7ebf17a083a5335064a593e
39045dc3c7123a8419ed6d8266c4c89c
ec99a0b7e7a8c64ee756569811a9640a
b368271431e693a5722f00045de5ba0c
0c06a196008d1b689524ecf6badfe35e
2795e4e930cb7c45fd0814fa25f2cdd8
24548f5b34e0ed247c44577cd408cf7e
e2263bd734ef65570964685bb052a9c7
94cb13f67581bae41b7b0bb9b90470ac
029cfbedcede0fb8c496cc6f7559dd4a
c254e8485dc4627dd2bb59693901ee9f
6f95a75a88c48b1487c88888350f6782
d1e0b81deedab4e06686d745a8281a3c
d63e9d40de82d3869c8b8f810fad3d4b
0560a165862fb4689381eebe567969f1
d97f92d0bd79faa8a3292ef517f43889
18efe62cd9ce7d78fc9f250325454f23
a10c183649c8b666412dc07d7bf8d2ab
76b48582dac15d783e448759ba8efa10
54dbdbcee632d6f263477526b6b5870b
c8372ac698690161c48c1c06910b006b
6e5a255dde0e1f21e99d67acf42582a1
01422df85007405da1e58159b608bb88
d92e7985d8644ee23ef4d6ce50d8edac
5e58bb1749bd8ee234bb55ff7993982d
3135d64febe190e8d1c6845606372151
f90f85e1e77ce4468ba494d00cb01aa8
3680f8a149938945892d658ca4481d12
2a244aaaa9f20abdfcf2890720017a13
73434347f802200e0897eaeadf4fbef7
8da5b1a3e41d374a9e2be9b5eb49ca66
c2fb6f29b1a2746849f5ad23336209ef
b3d1ed7abb2ccf7e64683081f2571fd0
a28a9e1299a87b88e037731bf50181d3
6a68c9d285114fe1272aa945dfe12231
cfb5d05ee8ceff822bf1154069b59e6c
871184cc792cb366a48fabfe63385f46
3cc1ab8084d01f5abf27c175d838f1c8
5050d2e486be894272ec32a07de4b429
e473e5cd221a1603b772be6a50a89b95
cb72b6eec28beb57cb6692c3e67056f8
2b98d05c46c678330bbaf231c70fe56a
734c4137cedeb4c8367980dfa2656a5a
a599957195d24dbc8bec9247c716cb62
04f260167ba702116a68b7de5a0c0592
f929af97a668801a06ee83ffbfe4c03a
242b19f209208f305017d0813a5c1308
255ed9bd9e6226f6fc600e45a869c486
f213a67bfd8c1431f1227f131dc90fb4
3ea107ecb842af8663bf57ab766fe10b
38df21cd4fb8140a32169c0feefc14dd
26d099c6618d7a349056ebbb6ac58fbc
b0af1cd539947fae787f4ac47fe1a69d
558426f6a74fdaa80f8d56b57c1176c8
ad5da0e1ded0b5ac1b117173476d8493
8c736b66bb93b04ac6eadde33810315c
7f961fccaecd9082b6c479bf9bd62b92
208325295726d7aa235be2338e087375
63164f248401ea02841dcdc4ab4ce012
64a113959b4634aa9bffa4505b44cbcf
4d332b689f21a4a22e5821290d43ffba
962d14fcdd720a1bca57eeaa7c859667
ef459dd58de6f7f856a5ad5816513600
c7dd2a28c9f6b163de842a9eb82e8af4
eedac9c78445b38a1d781b437af2f869
53fc29f1c83dfb3a5fd0bac9228e67ac
d7b0d30a1ef5192999dbcfe931ab86bc
9184ad0f464920466937dc61b51bab37
2b9b6875527f855caea7ad5e1eedf937
f1a06cb500ade195bc8a528f8c9b2164
6d76e501aa426bbb5e7455690ca44c73
7a79929763146e1c9cb9bf4d9a7d7dbe
da880d18c427b5935aa1a408fb255138
e0db967c381207117395ec3281bbf230
d441065591073253a473058ccc40eaee
cd5a18ac4fdb1a4b3df19df356f2462b
b6fefde6b028948fa22c5b5c20080553
e6ded923431cc575e953e0fd9e65d6bb
1b0c833c95100fead114afb47ea0a642
2a48a799a97f85431c61415b9375e4f7
acd29d6568ab9af8dc085f00b9cc8afc
aaff6737b17b31a4d1b9d21f1350ac36
fcf81b942ddd5240cdf9f4ef5c542fa5
f1952728d61a87be28afba0055eb8608
c44282760e1c567f5242fa9a5f9df210
200458a29bd669bba75f9d8763950340
54f6fd8e6922aacee04c494281887419
ca04b3a9fadc636ef21ad3315f4ac396
7b8d47c0929803cb485c01f523f0568e
733c77e048b32d046dca20d8863b7080
bac0611ce606e9f3491dc573687c5067
6ce135aa9c824ec98bd54560fffb6475
2609132536e3e1f22ba320c71625e12b
7d4e1b36f5324cc5c31b474024b819f7
beb1091ed59c8bb1214642b0736a839f
675af5be8d26e8dae9208b5d9c47522c
30b75852ebf1a9f730032f36b05659f5
2e7c361a88989ccb2099726c9276b426
7f9253702568e940d4ea72e8601409bd
8e5c76ec1e201b7071078c887bafc15b
51eb8f77585514858069c255ff37e70f
229140f5cef3d9b3017dbad6ee80f97a
74493aeece1e96c9c513c2df96b2cefc
7665917719ef303495458cd6c6d47133
5d0e4f2ea2d6d66a9416fcbedcab1cc6
fbbd5fa6c5cf305974af546c54df53d9
3654f2995fe740cd6d6d6de3fd62b668
e6660b6a53a3be7e6b7f35a42b3ef778
f9dd6f2f07cca701a17e4bbcf7a61801
5540d44b2eb49a925181fb59fcf6bea6
e04e369bd55a132319f9e7f8774e521f
ea5545260d1d5b371687d7e14608449a
a43668ff0ff610bc8555ce4a7a79c102
268e36254368f069ffc92326f403ed57
96c422be04d0f540bda1417241489316
744dad55e36fe0ccfe68c5723985f83b
452f5460b6af5131afc9ac8aa4fbad99
11e3d62ee157644403da908ceceaba91
f94b2c8684e0bda763d08fdc95993201
45d56b43ddff107155bda88e3bd01613
794d4563c2716082933014eb1fd66b5b
e338c86d3b076efa9f80e79ca9706819
2b5a1fdb6ef5e5b6dd549a48cd9d3213
ce52a7ad8c5d743000e8ae68f495ebac
e54bff5a4f32f2ceafa50432b09aa46b
9eb7e50713c18fadf3bc1fb8877c90b6
5af88c0a7e7c482cab7dd71a265ba757
d3ee1717996a1d94496891a1459ac51f
22a19b773904d465d7357eb38da47560
c23ed026297588a55d9ea3a0db867924
1363975d2b0778d45fecd681e2ab5ff1
0586634d82cad2b38d899969023cdf7c
2bca88e15ef050ddd3f82b7d4ac008ec
ae9a799a045f65bd83a41e2ae76de4fe
79318361be5b534aac99ed21081664cb
95a963b8c5c6e0819ebd7a01ae4e905a
c68fc3d9d0b05a27b4132cfbbeb10efd
b38f7bdb8a977df3a382424e346c4a7f
864280425c014d2d672e7c77a39a3f3e
55ff7498638520a0be3aa1279cb89627
0c0187739b310b4e0396986002cc53e7
f6c62c08cf6ae5c83d2e65233cdb1997
f6ec1ff7611e0072d48578efe9697cf3
bd02fe4349f44b0ca79c1a77a6dc5f7b
76b553c54c8362b7fb2c1a255b3fc7ed
bf43733a7df0bb494797caa30a105e99
7be836363100daf641ed730e8640e7d7
069efc8e37159566e51a7e523e8e0ec1
65e8452754f1369f3c4f85a38ca1117e
2a6700719bc105021afffe2cf17cf00c
d5b86c78c894b961427108ea91d3fa64
4a59e692e86669bfc36e4093d77e1b1e
7d15a19c62c086a068a3020d79b3fc73
e7f44096de73f9d4d84be06664df1c76
70a21597053094d164f0afb4b41e6992
bdd1a4d10fe7b7c8857a95a8aa82a94b
ebea40b1717807128a3cc0c3ca6b9c66
1b663995a3602414c444d1ff957e3b4c
7c30b4f0b0ea4fc93ab92190baa51a0a
298414417bed4cf9461ec3e173e8c95e
88326a8258e9dac1872fd8e92ed28a88
91bb838237131ca6a3e43a5c00121005
0e5d5c4122c4c6435a18f2acdf325838
73a6ef6771ddd438bd87e9e7cd99d962
72a0b84e9eccad2da3a4a933a5e26c3b
4f8584b041e463ba02b8e3dce84c1ec9
a42822add7a3065a724ab19d04cd762e
3fe52d7504eb72875cf02bc178f9222c
9f4224026aeec29e3565157a7d5ea545
cc07896d5c6bf33cd8df4e4e8583c566
e6a2098744b854c6f1ffcd0fda349bab
0afa570902c1cdadc991f5fd560cf8e8
d68ac22d57881c589354037eb5e8e5ca
f262c8a731be3bdfe73cf1fd6c608c83
801956b789f75646d030748589457658
91db51abd00bfa62becb24845741609d
11ecc5c0c7303f159a54620b04d3fb0c
ed9f77e40d0bcece186c41205a83add9
6c8eac162f1fce8be78dd870b5619dda
f9d0f8e0d78a8c426b653049229dd9e0
72e1205ef6c62a5c98987f4fb8a5ef09
94543b726b71838c20424ad2238b92bb
c82c5f155e2056026ebc7f23d7cd0553
27bfeb36c45108de11979e8f08b861ef
14d544edae6d8314e7fb9ef0c055d1a4
3468bcff70065ebbf7722f2765de7dde
4f92ecd012c6f953de2adc0a6e4eab76
beed2fc236f320b0f848c73acff77326
9c317fb39d8e53f5d54cb04f6e827b81
e3e04b92d869e809a1b6841ab66a0e09
fd87a2c4805c1f73f7a3e46e971c9967
e1e0239c3550ba1e35be92b538881dff
35a4827a1733a931cf30e0a7384889fd
82617eae16ed089a17b5e910c5fa9a2b
4edfb6496ccd4f153da03eb10411c604
c8fc7844b3b1919ea236d2e4b13e6550
28be6915299c7f8436cbf0ca72fe77e0
f05a4db01190d37f8307b9db0cd7dbb5
0914ecaecc3efc90926d5a416f7504fc
66b90f2cdf7bca01dc1b34d1f5b962dc
09cc95cc2f61952ed674fd488f90110c
622785e49c666e2473c613eb15492360
257a641c2810f2915100709e67e5051c
758bd99442562d595108146be39d5a0b
152d5094d53b14a1c7dd7f48f7f4cc1e
687c43caf268506b30cdb1a85533f79d
fb947c7b53c4ba505887b776312e5627
8dde099cf050d9d66249a61cc07151c7
a16a7228788fe828f9911feb7ea03498
1dea760f578cc72d5f3a97d8aa834f47
9af506962b1ccb649e9d250627e2b2af
ef4723ef23c013dbc64f73b6f4d6233f
b11ba54808ca80d28574aefa5a2670fd
b1ad966b66514c089f313cebc96d826d
6daf6d0dbbd0b638207dec31eb13bfb9
3435717cdf341f44105161ed093578d7
79e63de795ed899405014e6af7bf8f46
7df45ec3e39c9d142e288c57c8ac3196
4d378e2d790589ba76d8c97af109a31a
2bdb01ad4d45f171f22130b013c7f253
2cb0d7814c2c6ad05c5b7946ee84624f
12458fb4cca8e22f0fe2ee6540e3ce28
8a0f70961620b6f0ff90035e981592b8
805793f79c92f979d11894228c8e1a3b
43fd454dc36e8ed7b574114f7f815195
b73cba3e994c563263ce9ced68c56dec
f37c8b16c8649118b7657ba211b46685
ff74cb630bcda0fe7cd2a2dea916c6db
f6b439a89ae2a93eeb3c7786018f798d
7b856b65fc563c640bbe1fd87ebd5358
3484f4fa673caa26db09950ccc198ccc
933c913c60ac5c88d1be8e7fda58a2d1
76a4e4f97ef63ee223f810a5a8cdefa2
0bb05c6a9d8220e472a60cdc7d482561
a47d208508add5a9b2ed380dac6ba74a
b1bdea9d10dd4e624c73d8432fae36b0
6e4a8235376ad8cd652d3a30ee46e118
fbf05c693f9f37050c222de64d6dd522
2a45da9af830d03cd35ef025ba2de82a
ff89ed5562580d86a7b07db9bb0dfbac
dee6489a6cac2de420b33b10c8b8d1b0
c524061b4b0e684c4bb62cfe0c13fd74
2d94d7af90c217b0bb7c7a919ca172e5
71ca4881dbba52fbcdc59d099ff2074d
cdf53cdd2ff2a7d6e5906df80a22ddfa
85b2a9f420aebc01ba8aa445275c69d9
464d6a00c6fcd3e8df76304a9d3d1384
9bf0e25d684b2ee330638cce913df3e0
b593c81dfc1cddf86d7e140e91ed9c23
d1809589d35adffb25e0728ed6556e97
b2078995b3f932100a7d87114e992bbf
9212deda98447e60ae18e0e37478bb1c
e11738aa38f10276338773d08f559143
8d1876775a761d47ddff457893a8ba9e
a05b36ea44a44bba72a8ee45374907df
ba543cbd6913522f7732299511bf2c75
bf40bfac527e294b4048f71050f3bc71
e027953e1dfbd90d148de9e7c52194a8
4da1cf30f29344a602e7d9278f93212e
062aee77bfdbaeb0d7babd048fa96871
f691c51fcdd3fd94612286d7845db82b
fc9bcc54554920aa815bac2e613713f8
a54f4a8e00f1cf073d00636b54ab7beb
c73dca5d7c8a6009383ec103c4b92aa4
05f5599a6ed82efec1a3102af0d8f2d5
814257fb587a42ee71c7bb9b9361e02f
d1a9f554866661951251beb6b5bb4833
f72421e9d76df245e10763acab0068ed
7ba9a36efbc26e432555bcb290848f7f
de93664e4fbc0c7d510161e917179ee8
028da307ec78109b7e5fd24d0dbb6201
3247f3ca79dac45663ceb821e31620c7
6b6f6899f139a7c656a1be89cf7021da
0296d0122b77997946b5b1aad221d9a2
4b3b2b77c8010d474f05f93f74dd34fd
11ff886298c4b5c541f57e152f550010
29c096949c64f053200a3fc8eeb19f62
ad42a6aac38bea6bfd87b18c92d8af5c
a4b59dd5a1d413636c64daa3075688c1
1a2a5ed96a4350bc72edcc4cda4800ac
b0245c40f018ad244fa053d7c75746c6
50f3998e437ce678e603b1e180d2a8ba
f87683ad8c164eb3b654d99da122460c
29b86c18cf17d4d2b165eecfeab0bfa5
48064fd1032b6558c1730012d04a8cb5
391379b7c669e4397f5c2e1e4d79487b
78be031ba0486787fc9898144ffb92cf
f272ff6f2c61cab35edaa21365ad2acf
cc89441961f8a9ede2145c8ed1da4ad0
2e883b15c6179e942d04612a7c2ffafe
06afc18cd430fa3ce979627538ce12fa
c2a099293d2aa677219d18800cc743b9
65cc61ee794c5bac8048d3ff37c66631
836436fbc0832f65f645e9baddea77d7
6cc44f36eee9692ba602f3956cf75c48
2066cf7d574ea13e1e0397f75ba9ff18
bf6914ff3efc2652b09689a9dc93cea8
687b16ce0ccd3c03f225e5bf261fc12d
e4bb5e380f3cd3b3033ef16981d41b81
4eac4e712b46209b34dae8558fbbb420
c3428137d5ef915be8a47d5b72d4041a
3bc7d1ad0199c5c8fd7b5b1d010bb99f
386c8d1446edd4ee6800f35b62d9be55
f49aea11d1f995bba1257dbf676be619
0c873fdb5a46b6189476b206efe8ae3f
3f547ebf27bcad727bbc9045ccdb440a
56a8c0a28558ba2166dee708565041d7
eae08c1d8164aa5230f6f75dad915f47
6d5de6e4e9900e6e6859483a9a9d4487
84e2ed7764f60eee9b3cc865e9009fbc
ed6092b4da29251f82c3913a5f0a6910
10d32e7730f40f53edf7e98a91b2cf3e
18d989b013d487405b304980470ee31c
8d31fde9ade52a491217ea587eea00bd
872a1c3d8e4a07c365f9741d4565460d
49da1163a5801c6d17e970a608a71eaa
bc6048fb4a274c59a4580ac398ee75fe
d52b6229268f61d2986905863ea47953
2f52589a627f5b3891a104d4c27265b2
058cf8959de4411e79e4e1f6d7a18885
3dafc402a482579d03aa24f984febf1c
59e9a61d89bdc1814aba3dcb16415106
89aa059214252aa21e74a1d63fbfec94
789a879addd0388facead8fbe0464365
0e970fbaef428b2a4d49e5e7f06931fb
576594e059766677b506a141542e9232
de61a832575efd15f4a40c146c38154e
8a2101f1a0f5ec9b8a8a9dd367f9ad32
1a563606b7c073f800b4dd0fa77eb1c8
0970b51bd72bd6875ea3686447d5e465
11b461431bb3f6f6d87395f30fc69156
c1db310a8b179715423bea081013d3c4
3fb3ef9f5e6c509469c73fdc707315f8
3931f266a50f94bf432874d4d40766e6
d70fc2cb600696b3c5ecc38c5edb1124
485cd8c0ba9c543315bcfa84ec0aed3b
58604d23dd400b559fa8a1b555c6cb1b
a828699bfd92289950e5cc02e4d1e64a
a390d122518d8715d60a17dc55c5278b
32e72bb25d4e88c4fb3291f62077b1c3
12d78d271e786b5099f616d6a3352d90
3eeda5b136d15e627e58af19fbcacd1d
807b43504c5bf545ea7499662b04a651
923a6bc9c50c4ca390de83fd325f415e
b6b05877d0504a17a2896f4a39990f9e
8e05ffc9a279afa065ae159c6b8e7238
355fd4101926aaee7ddda3bf7724a56d
6ca597c7b935bc0a5b1ea8e5a76d1403
ad70e539918c32caadbe90a4e9eab902
80e2075ca223096fde1752324cd98f10
825ff807ebe2f30b137b2ed903e399c5
bdc59d7c8538963265eb56072771cca6
a0201fdec4efb7a176180f623ce13757
0f4d26889cc5aceac81387b881eee6a6
2b0b7a62842af1273ca394087a3697c0
44e2ed97761c5efc039547111f6884c6
75a446eacbd3522ad59be2877113cf26
5fd8ebb96918e7c0e461a85a0d4491c6
8436c35ed1e2619a084b594bec3af4cc
e405529e1cf9381309dcd43a58ded0d3
0b258d0efca45dda63ec8e0fe1585ee2
bae7c8c3cb24251f0e570b1d4563235c
296aee2e8abeb228100b93ad0404408e
e418a8dcdd870ac69939888816c2dc9c
a6aa5bf840415230ea8fc081d127b243
144bffbba211208aebe47e49e6818471
619584a1c2afda146a8d6c9adcf6babb
b7bcdefd8ff2b028af3b7276299c8dc4
3829970e9c93dc6bb42b8522519410c2
37132d01531a2dda6dda6ab46695dfa4
d9751c1a29178e2bd1af0f5f0e87dca0
40a9a92dbc3630a881ed901404bcfea5
320fed1d5cc30b898819db64e764277f
f209e7e2070f13bdb923690e6d921892
bf6a7d0e5073be7e5d9e5f54fd2f0b9f
2c5b04c2b5ce4893199f7ae973e210ad
b1a63bf645d03cf4757cb992d3d9db24
dfdeaccb9431d6e86166826a6550ff69
052accf81d3fc9b3481fe82b85532ada
26e0d95a924609f3b4b65599d5328e82
4fb704d1da29b98af27d0393a08f1a22
02032c7e4072b80a699be27b8a5932f2
c052b0b5c80c81d2139241ba8bbfc8be
7232e1c787b233891399148ef40e8d20
63749ba7cb9b3eae40032e4969c9c7b8
a2584663541ad8a0705d2dffb82997ce
ae951f6a56be662539de122cf8477c53
ff395fe605f5484b957280d782be2ff3
53d0884bdddd84d94cc6512434709263
23c6700eb037bdef18b8226fc614ff0d
5dc13429619f75077a00f03e01a48cd5
1ea634693a6c93c09f46593a2afb1945
2cce92f57bad2f71d1a46b6ec892832e
abc1b3ac861d211ab0dce8550329a52f
c22688516c90230db12dadfe2699bd07
2376294d59e0c9ad133a91e326cc7863
476e69384be4cb55207ed1cd6e862cbd
4de45f9ffc38e523b1cb542696c7c5c0
2212453b5f02e41694486b7e44a814bc
7ed1cf08dadb3a4d290bbf38d4fb4688
9922692f538fa0da2e95370e22a22403
754f4a8509619c089dd8291e03ca537f
8b6a2f34600270206810a794e179797b
828b4fa2e3e2f22273f9de8cbc9240f7
c888a73d9c51d2188450dc2e260be58f
c18c8665b3b1b4776f6558ec79b73ee1
e1627fb28afa0c8b6ca6516ab1956301
c45877e149d428350d63efebb8a88004
c42bb2fb7438917558b8bef0ac324cb2
d0eaf172ce00b94035bb67740583f641
b2e8e7493d01b182d45ef5064316eba2
b1cf76f8a4334b3a0d03bbfb2a7a5624
4fd3ca56ca1f20f20a6efd3c41d69a3c
9b2392ad49e62de701ee2e6386128a59
857eb83d12a9218b59d7a7cfbfe2cf13
f2e7386be8c9ec609d65791f85574527
75c849542d78f051234f12c07fd2a35b
131cf327ad406fc618bd48215b8457a1
5e8ec0e9841b76e2e1e8fd0a32ae5155
626c1798bddc9e19b2065200db8e838f
88321e3568b89d7b9994c0ad62bfb83b
7a8dff274c3d0bf81cacbd09a5a00f9b
90fa0c5e2326248822cc2379b99aa9e4
83a8575ef6d388b35684fb37878b6ffe
27f7b3fdf7bfbadf3b591aa609401ae4
4bf639cb096c8ad629753654fb90e7f5
b717bd87f4b9615339e8fb2207b4ab40
b3103cc5493440a78d4782c455528efd
c092ed1719998205d602f6163724d26d
f2129808ea075bda2a594fb1ea61141c
eaafaa4ccd39675296c3aef7c0b7ba14
27247c11439c7b79b16ccba3cc17bce8
7d73b5a8f2674ab3d0bb5ab3205a31c8
88b0e7c0f396679b44b17ba4118cc47f
321379a66458fee602abcf8af4664080
658feb89c96431926800475b761c2294
90d3f0250642bb57222cd2c0b7884b0f
3e637c7447a188f8e544977c01b54ca0
1bdf25eed9775d43b2158decdb2e385b
2087c73aa3a28a343e57430ef172b262
edd3b1bb1830b14fc7c07eabb4f30c69
54c55e97142a5d258b8272f33ba10964
e6e95808a45120d94e5968eec9ad1457
7ea530fc1f29687b57197a08f22272a5
80726e8d733ff8ad717a1db12a84f16e
3927a37eda271f55a532bcab0640926b
c75e1983b05f05f51e277eaac4083242
b04bb30f389a05d7cf1ff0e534c56684
fdb3e482c5351e5551b89556e45f3328
69e198b7a2a2d1a488a245f8a4a2a882
f13b709478c4ffb179e83edbd3fcbd95
bf7904b8e3b93ba39dc8c65cc30043c8
7e04139172f0ebbfe3a571bebc4a6825
e4b09b8b728b2afe270bf61a5cd4ce9e
7103db2eda9762cd867973e352d95805
dd6b920a1e9719ba6ef53e51758e8532
5191bb8b86f5181f8986114c50ef8373
7babf0eb05678c1912dff3dfbc0be8bb
585691da6874b3cbc5168bce4c42f98a
8ac0aaed7475cadbea3a49833d63329b
e2a789c37ceed129678dd98b01236000
a9c9f38394160d7fb52e617c1a6537ec
3f77de18dfa80bf8603eeaa43c63454b
1782c69f1c60366fd1150bb556089204
0f02ff825ebce258ed673d65d37a8433
f7939aa651bb7c624a401834cb10ed98
87d504ee8166a6f40ee39394da205789
a0b04ad13b83058263a4c120eed1156f
16848b1bd5ed93477efc1a1f8f9f92d6
536065dc7c6f42e63ed2435ab91d73bf
7f2bd1c34937df48621e49b8c69fabac
3aad94db26faf15d69cffff8f4d8a50f
9e265f6169c0343629e6751907fc28a4
c476360b1754c9aa33297a61f522f055
f4bee3bd383b1e51756d25da2e6a9fdb
5c2ac7a4178aedc16a31d10f6fc7c9ba
e44867392fad255767d21ef9950acd6d
cca5f4dacd7a0ab70aa75153eb5d1766
aea82ac13b1e8834fc92fb8e0b66d8d4
e79d61e7533b88945c37f89c58eddee1
6ece22784807077fea5a270c4e1fb1bd
32349555cdf1524d5d6a46316dc16c06
62a522f0d2fe2334dec4c4c3843c632e
68be00486d2e83e6c637faacaaa12d98
c610b74412604e5a879b2c06f6630a17
1181f52ce40faad1c548652895c3dced
9f11367b71626e6ebff5408df33a4db3
55f25b08d3ee13a595c59f3b5cd81cd5
7d3b937bdee877bd9053f6daf6e8cbcc
da8a3e19cbcdd0bf3fcddc2a7956e301
5d3f82a0b27f8627aef85cc7866129c7
51f754120368a07b0be14ab0bf369e6c
0dead6f136304b7da2da0094fd1be9cf
c4cb2d405f8b4f465c0173c8dee1ddfd
f47526f561e3c7339b1e960d487d3e08
bbdde4c5727d62d4378e887ea57d4052
66189224e1a4e0f044c16a54739fc19b
356b12790f7ee46ecc5ab1a5ab403321
189012115ec3210786b7220ed790c850
4e5a8d9af75808b01c9ded6369f4a3c2
e0c0a572064643c9993f513804fae18a
9a2f4ec91970b867c649e7883ec99a97
0af0c7b6a35a6979f6b901a13358b6a4
744902286d6d1a76f377ad7fa63694bc
a84230a70b5d9adb45a4771d8ebceffc
47302e784510b30a752a190a33c25332
7603f2dfe063fd66ab695207871d34a0
d8a3991aeab62ef9341afe6ef46725f6
ef431bf8dfb4f3f74d6cd8ed076add04
cd95b6a0a8d2948e031242c4bdc1b687
284530ab10204cc6dd4eb09de9a5e870
1afb1d830592020382e26bea64267d0c
67186fc1a7771c8c933618e98ee287bb
3f9e358df9affde927f75574bea8fe2c
633498a4a93419e1e6a71dc9e7a77415
96216cc4b3e529380784b798ef5a3edf
48f49a056df9ebb9fe105605abb4e73a
d3eb4eda7361fee5585952429221ff7c
e63b53d4784c7ad379212feb02ef38d4
89c2767539f7b1d1ea203d5891d90918
e05404ee0425e4aaec317710f654b668
e2c9a48b087dd1ad6c32412905827ff2
d2a020bb1fa55f94730e1cd75f5fcaf7
45bc2b5358cd24d6e69babc30d407976
3a047986548a66ea8ffd48cc00f7b60c
fecc3dc59dbaed3c19e9064e46cc48ec
d112d423f7d5c6fb66da89cb26a1fe66
a2ea65d50ede94643321e714f0163703
5f7804184e10940080bf882a9541b6a9
3457e36e0e262eccda7ff8eea1d6f00c
24b73f17df930d66967a0f73be5a14ca
1582a380ad063ddb583caa2cf9efa09b
f670f8091505fbe2d749a389cf0a3123
9cf8a5b75076742119019ddbc66777cf
1b1065da9f1728d4e491a1a25a7b2d38
a1eca8b9846475d0af57326a57c62198
cb8bf3063f723d2fd3c972e497b5e281
d998e16ec31e44a1324835adeecf30c7
2282d6713a9f4bcf986a91c41a911d6e
72c261ac550e146b176faa42b48036cb
160223ec61190d9c4a20cd16b79ed42a
40e6a8603d9c0ea9b66945821e99901b
b211274c90eafaf5a5973a1eaa124748
f1ec8d39d0417a09bfa27713c31b1298
ee1d7793d3e35061244890ac306fece3
88b7067f6e356652a4d57ce9cabfec04
710ffbde88b7dcfa6ec78e295118e9e8
e27cdb3b7f60573612302541674ba505
1ec918743381fff0252f9b5a1d04ef3b
766232c0273f44e1fce7b509a7afd7e7
32e546f313479d5cef87295ce3f77dbe
8b00c5f5d733df1bff81a030048be970
5f7e09404a907213abe2c85171421024
0c93aa3bde6ee2e8b0ae3e2880464fdd
97be500558f693b490620637fd38fb3c
116b0270b03a128cecb307d1e5d0deee
50c070d75d2d06eb80fe98bc63b62adc
60a18ed0a051b78bd38adf8f6dfda1a9
a5be7744c1354fabe1a69a5bfdd5b438
e3f3528145123eee961d378ce71bb6ba
676eeef6ded6bc81f6de3b090be4d7b2
1a66ee6298d4bdd81100701139a0c7ce
d25b469d1208b1a8df61a2f93a188971
554bd25b23873e2a82dedfb437a65bf8
ce4f0fc0d54f0c9a65ce4a52c67db710
83833686e2cdeb1af9348c3acce8c554
bb8b0452fbba9323d9b4436aacb54e75
94fd4a16466d735e4bee3e07322217be
d255b0acccf0c23e1b244e535d426afb
671e8b8a21828945c534bd8a215651f9
3336aec1b05bdeeca379ce3202c98795
45e11c275a2ea8b68b9e121bc6caeed5
44a3cfc4abca5c403db17c415f761d7b
6bf74d6359d282da39ad1e4554d62ec8
f87c70958e83b714a6ee3bcb657b4ddb
9bbffd543b07b4f783cad41466da8dd5
52d328277fa005ffdda9752cf2d40b35
f8b892d256ff8d6dee93ae3669f9461d
c0346954f36ce6eb2c0779ad244c3772
d72ba5531cf71f5e1b50b8e905ba8374
c1b72580e703bfa11586d299c7ddfe3e
dd07003b94362d60accec18ca3cffc64
4946beac87f8241f97d29bead04758fb
34918e3e8d78ce8ca5c174baafa4c021
12bdcb0cc08557a4f429dccd8a036584
9b43caa63c3a73f73e5bd9ff69814ab1
fe460308e8c079ad7d86f10954441d18
9468d9bbd5abf6a9a3f79aa368b74b8f
aa392c795080f9528aab43b7a9b3c511
42a2e411447239eda2402480437c3bb9
5ca09389044fb698a0bf0425e08b103b
50f847d2495a4c90230af5681b383029
23e4792904a9038e94a07316749ce355
efeccff54b2a90b61a0db85bf6dfd14c
e1f29d7ea7397b7c0a2300dfa0c404e8
d361ffc3d4bd2de6259c335fe40d57a5
a69d578e0e85e38ad5fa9e08e785eb68
f57a8f2e9cfb302f477484afb7a059aa
7aa38e9e6508b62ab8b4ecec2e4cb1f2
531e08892fa82fa8d37ac2953f68e49a
6286f73849d20ccf641e88e945688461
332aa3ce674b7953c4e3a3ac351c9aa1
932d196d841f91204ce171789cd0aec4
34349c202c86207300c50381487a4770
796494445af697cf200d2b4471d054ac
f6cc8361d5feb57fe81c1384103f305d
a3e80434eaf3b228c74ecdce3e2bb279
d1a717466368c84d1384857a1da87a5d
0b248fd3c337e14a036a538d976e6b24
f4518916a2a65fe2a764102a2c975f0e
982a18ff70c78bdbd23d54e51302d410
812df60df51dd96783ed1f0871ef7d26
42723fe08c37c1574008cd04291ea98f
5c719bd7c1c7214579ab7b3ee8051431
7b5cd395923c5e40eedd28f16d290cc2
c607ba5159f91560135031b054e05f4b
1a3b3caa037d412496d687296edfbc0f
faf1ff0b668c47deea04db91652ff82f
84a3942cd8854607d9ed64cbf83033ca
db3ef05c2662cd9a118077ad4d8c3645
9e2b852a02255f1478657c33283d4c40
a30dd5461e5d6719b706a249ac881fd9
c95b0e83e06f5afc0d132c896de9c37a
67f38e7048297591515bdfe6393dc480
d2d6b3c0734ed2ff57fe8a3a088f8eb1
a1bd4a6086c36d7329bb211bf7fd439b
b70b7788c291cbadb0d15207ca10e55e
88da78a79d6341299ea4bf90b75249c3
24779abf2254b0fc0caa7ab43aa71bd0
e0dbb7706aebed0daf2813f2623edcb0
7ec57e1f3d33f20c1a9c5cb512c3bc9f
e6377e2a28ca3343ddf6707db0588de5
1795623f32566783f51f09d9b475c8e1
59d4d8b67235df218d3635d9049ee209
d3abb04e42d98e2f6cfe50a6027bf9cb
91d0baa74406f7bc18381ad6cdcfbfb1
f256d63737a3c1ebaafe14cb33060923
3c78d88bac7ff2b7dc040f4bf4f7896b
48502fabe9c53a69ce61abc6129cbb08
61b1096c80b903e7437499661bcb1599
3ec9ba47e112098a354845285c31471c
3b568674856e0117202a96739af99848
f0d8069643eac1c20bc363bfc605ca04
72da383276362015e48c229d22d1a5b4
09df1d4f4c6b94cefbe5dd1cc39517f7
5178528540101de2e84571a8f8042b68
d72209bc38b148de21f98caa7c7e5351
b88e881ff2815f3edde7c4aa50bbc850
7066768d4dbe7ceeb13b26a802338531
4bde1b873c8b14a44b77c0d9ad436f07
f459c447765093821fbc309f3d2dfa01
41c09210588fdb628dcc42732a9d0e55
0e46366d7c03ccf8c9ad2694adc93b88
a8279249b9909a81998863338328cad5
3672f0640ae47d6f2a2e7d20de7821c2
9e7d570fb923fdc19782b04cbd466f44
900c6ca8cfc4684d8f8fc2a8e3001b57
aa19f79e89d9470b0b2bc359c4d0b950
8a3d649b4d4c51116f751ddf80136e8d
0304b57fb7e47e963fefa118b1658e3c
a6ec7377d732fcb086500be43b257b0d
cf63fbea87fdbea365d65d784c1ad533
c853ae2f84cc129d1fa8b978592ca1b5
891408c1aa56656ebb06636d47348534
53f04bcea98392446491058eb80c4105
254018c84a544980f0bfc13d7d6a931f
a5eedc744438c79ae6ac226d576c802c
c71c737cfdbd12cb63f422f2089f3e4f
b60d8baf9173639e1d9eb55ae554e53d
db2d28af74a4dce0948760d4dc63ffef
f14f4f2f90b839378b486ea14249f10c
1ac4c1c8959fdf954c6ddb5fba586b90
4a7b9878e35c24128cd1bcda3b74a1b3
622a8c7a2cf530b9235629415400d897
c568efc33ac6e673edd411a7b098a078
8e6cf1b0f9783c7293145252577e5ab6
b1834ee8973d56e4757d03207a8c9b40
e10c25589418a3f24950adf697bce232
5e8e318cd2a43f037bdcb88fc3c031f9
ce404146986416078a87dda55171f462
040d05f5a6385f80e126e7b504c7959a
87f0d79d1d1b990dfa25aa77bcdb6d92
f7585229b3f18682db93dab36c373a84
4d7b17fbd297d479192120891e71685c
c0e58d361dc144b61c42f7f093360372
54c322d5f0c4afbec30248166b5089b3
b8bbd3e7bcc5ab1e13183d9dc77415ca
01e2ff36572bccfa5fdb78be9eecfbf6
377d2fd611d5ce0e0382fb7bc03d734d
258299a193664376f0f308c92bdf2a6b
53eb33c6bacc31abeabed96c350aece6
208502882d994cd7820217ba9163a874
cd2781bebed9ffa8006d0e99e73a3308
24b89ca40de8bbf1a2cf41d48cf35d9b
59c8dd343d2765127e1fd7e05d0c3bd1
081f8ccafbe391bdc7d7c43ff22d5d9f
e4ac59e3dd5f2bdb4ed080f73163bc16
58f573ce4a08b8807cdf6254dfc916ca
fea5dd35469c834469554c200e5532a3
ec3b456110d166bf27c41dfede6e7120
50062d868df83b68aef366f9e3da7176
02c9e52031835e036f505bad133e3a27
1ac3bdbec55421259094fa2f9be68ada
968b27b453cca5a818e29cfaafee3ec8
864c409a1cd9b1c175aebe8aa04efb1f
32ad6e1d30d2d5e1d0667abea91e600d
a8eeeaef4c4bf383bd32f8ea48b0f630
82f391d6f7d3b380e05a9dbeb64b2beb
dfeb30639a73e2875a052380c82f0db1
f32e391a8f5e280510a134dab7bbcb23
3e3220b4c5f718f0d09ecd12798d1e0f
8008d9868b0450439b25afd741237d21
399908665ab944764d4b6acd157f2462
2894d63036ab080108e2c00edc8a0675
ecbbf95e0646e79276363d2f8cab6d26
00bb08c714d9de11a2a0f089ae5c7955
8a9a0281ddfdd2cfc261473cb6fb45da
6cf1c2578cf90ce75c52b3e5a7e1a227
10a5bc2b261e0c68cabfdf5a9149698c
8eec492d557b7c3d51cc4b087ac87038
a954fbaf1a337aac6898b7cc1f1751dd
b9ee99eaa033e622fe61b9aadc00667d
63d182d6c9738e980c813b5cb899b896
af2e280643b47ad7819a09446001a550
fb6339cf5f4ac94ab2a0c9eead23feeb
0901b4524cb1ac33e82420d04311089a
d5935eac0b1255cc710ff3ca2f9e8c70
5abd7fe798565d2e2693e12fa53bd558
cef683757bb5a3dff1211b5581a2649d
cc6ca36f232b025f56935b36588524dc
cb972ed47bf5c463c355f3361eb5e82a
176c13c5efdd005b733a39ef70caa215
1df791ee8b3feb1ae3f09009c0a4df37
e22c4419d90b275dedf78a33288fb831
d25a5b1ac3cbc5aed613d0538f896044
d06fa90bb67e61a7737c61b6db8cfa58
09c2c0111c8283ef4d50dcb4b5cb0f41
26ef3e7e85f0508a141b9eef827fcc09
bb134e82f3b909bdcc9931f595f02d4f
08d038f707868e433f1ce1a439b7f925
52d7e9ddc9f4889ad2cc4d48cba1d745
11155a6794277723fd6ae02efc4faf5b
d82130466ea5d330a28f40b9978a89ec
cbf16b2cdac82df2b094629e710455ce
190a32e6648bc72a6c68c1514c39e3f2
f6d9802684ad2e8f180d51d8fcf2ce76
c87c43b151d2ea3bcfebcb77fbe2eccc
da67e406b7dca1ac9f042f5f7a3c33eb
3d25516dfc51a385fab4588272e8ed8e
b0cd4b61f5ff1e0856bfbe1efd1ca198
a779ebbe9bf4474935c5397984f6f90f
17c8cefd1bb5266e270c6c4d7bbb658d
2230e142eac4412d4a4b885990922d3c
758a031806723b57682abda0c4406667
deb278e3dd24f70f7db9dcf3d8911d84
8e66552fe897764c342ada4baf0e657c
c3621287a03a130be9863f3ffae393ce
49706a0ce05c8f6ae2d6ac0eb175146d
aa488dd5bf1c64f72f0a8d270cf04b64
7c06a4e5d4e934891da06797814f888f
ab6c9f619bbfcb707a6d8627ac05ecb2
1134d1791d8d5d58e1f7e178ff91cbb5
5080415168f83844a4f79481f04f7deb
07d62696b517380b8bae07ff519553ad
8b6694d650ae6deadbb080e103fbb7da
0a8f7a5504d5444ab02260f1f755c89a
c467dd1b17fd7b515135c612f8108d8e
6075fedd5eae10c380f08b614b4e9673
749064be19f0a6d290fb03e67bf29203
248df8ef830df491a05307de5e914654
660c8c6194568db969a262862b4ac6cd
3f10ece39d3dff5183d521f86b13fa13
926d312a3e253dcd07fa5d92f7730e23
f45ff6fe76a465859aedb0e743438452
251d7fec4fcc98fbe69ba641ca162d1a
d0bb6d5d8bdcc36ee846dcd46b4de2ff
e277d13b136bbd308907cc6dd9df8c32
4929db13fd60ef4471d9bed701f49375
d86ab4e23e1bfaf68e3fee3117261271
f208ce198da858928cfad2ed331117b0
6cc213c024021cee44c8bf92c05919f5
67c86db8534c26900c6b897432722397
20a5d5bdcbc51fe63f50c2191a3f0af2
244a152e23098b069944c5ded1dcfefb
75e19e50dcecc3787aff40c9b3d2e9ae
5bd57a014aba7bdcd9c891e6711451e9
723c13835ee0478cb03709ac2f0f97d7
9c066a8591ff55c4c9b358b3a973c749
0b3a732ef299828249a3b02d51fa452f
8a4b7783536291de9480cd8d2f2722a2
0112893cf1fd75b2647791b6d3de5d62
68830ed09328511801b93ad4a5d6b58f
69cec6a8803e8eab68189664a7645331
11665298a355793a421969fce1c34165
93f06473d605e550ee1343be6588ca2d
39e515d58daf253ec950cbf14ef782f8
189973ba857e5509e65bdbe6b339d82f
7589f00642ca3079ac38b644711100be
b6f597e345d59e7f88dea0475b146a29
ad6000c3436c5836e58552896cd91b75
7d1567b757edc392354dfaf01ed06dcf
be1792225b20416e217a8cfe289e0bf3
a560f88070d15db072cf505dcdbd97b8
b77496351785cf78f8728b64c2672cc9
d1ebaf874c693eaf86d5c70bdcfc34c3
76da249af3e9f02eff8378893e4a4f78
97aeedbfa78abcde57348088675d8e3c
4df0a7107510933c0b6f7d432caa5926
669997a3e4f13093d8eb386d7ffce75a
728df8bb98e6ccd433a5458a05966012
3795d31beae63890e812adfd3974ded6
a333c68765d0d00d61f4963671e43a9d
768dae1bc2d5fd0a227eab9d263bb253
93bf0aecaa5b85aa5a4225210fa5d0fc
143c4029ab8c5d38d6202ab009d61182
b0a98e78c2ca220f240b45ceb087bde9
2a5d523d1974e9eb1c9cd0f7a526a460
2a3c15d12de376ac94691cd914b6175b
a17ee92db08f1d03648d4bbcb29a7db0
5549f8634502baca000a9ec79fa202d1
de4a071cf312a3330d218166949bb188
4aa3ffa840616e2cd1c2a52ed1891733
7e0cab081d6eeb89345c910dc3131878
f1efd63eb2429ecfcf32bfb292356c77
869f607b4eeecf82cc6a16ab148d49c7
5334178079bbee93443c4627f9a76fc3
53a218df1d9c20c24d332de9af6c4c0f
6345af183851be48ad8e21a9f1395d9f
68a218815d8319b572f46c80247c2207
8ef16d359fb26d62eb9e61f09da99f15
0f6e43834349e66b96217c84482e43ff
ad73c4c5b4e355fa1daf3c66c9038439
6a65d9e5722bf840307bfc6febf1c067
1ee3be6d3aa18ccff0e1b85f45dc8886
59d031b05f5b19c98298b78846fb4e84
9dd10c37d13a00d6a970c14568c8a903
f9bf2ce01ed0802cce12fdf05491728e
dfad40e54932f55fc538347cb3493a36
de54dc9b606cac7418f2029cef08c3e6
3853fa398e777938918ceca36fc59f78
18cdcd542c95ba4a48c364ad99dae085
0c97b7e038e2cb8cc2ac72f1b5ffe151
9823d8f16564ad7795348a82df19f2cd
83187a70f823bac3cb76a2e2c4534484
bc78bed3477c2864a0aab3a7f0317fc3
5776ebfa6b8cbba56c32d45d38cdb920
0d1b695abb76d6bdd51d12e0c4466d64
c2c0442e90b379a96945b37ccbe5930a
c46f7d8cb27c86593845127559ee2237
d1c85147a45da12dfbff451e15a05324
1e3eb162dd7e300a6732e4f5d6116c18
65410ab2fccdddd225467fcea2ac0d56
ba82cd79e4f787342351d5063a91b5aa
a8d3e6c2de92f9c86a82b83e238386aa
96b58fc2ff1a42e597a4a8344afe2fc2
7acf525929729172f8c6d29275439656
f5566364e30332a9bbc084e2e8bcebd2
02c8b4d32c45cfca2dd2af80bb0b1ec3
b1d53df944e1009a37fe951b1313e8de
f9575848c959787df549bd45ca21c493
cbbe39ff959003c7bec9d97452a782e9
01c32bd55856a5fd65366d35414ed7e8
8012765294bce670969f97a205c19c9a
e03d124bdfa207820ae486d79e5430fd
cb2337252b886b99b7663a1339c40ffd
b4d6470d54d033ca2b5dbff5bed6ac5c
a9d79d59f08634213a24409c64fd347b
23cca30546f486076a0a848fe11925c9
93ac073c217a2da7542e5624c2a76099
1ae0380c3888efb6db7ff99029ef6946
450c2d9719e556b62e04efdc31655266
9e7c439664d3584dbe1c27e59c9f8459
aad7590e69690805a98d77da3e749fd4
df33a45b5877097ce479faa55135cbc5
ecb61567ebca6dfb0357ed779fafbf16
5b9ee68269e01373fa4b3b0eb48cac7e
aca5451a13f7fc55202fad9095dfaffe
dafdf57d856ab8167382522b920f5450
59b77d3bad1cb35bbd888334fb0ff64b
d71558ccdbe526fcae3fa800abffc100
7f64e196299aedae2c5b0e967a136e07
95b89d5f781c607f3aee12594b354fed
3aaba9d40181e8b4a0d9fd87dd7587dd
9143ade2b12190214d68516f828fe7af
1983bc94eca51c205305c6f624ae3562
f3a193ebe3eb65831324fdc0d21143e7
862ab670de5a3052fd76c421dc29fa5b
49cd93d4641e62831030ca8545eeb3ff
7dc6d0732b913f234bacc7b8152530c3
980cbe8ac723a81aa1092a513e078e8d
c9efc8b2b218353c7543099f6a5b54c4
8bcd292eb3be2d20b625e6b80e4c01ec
16da105f449ca1e308baf66a68514540
815087d75e87b0bec30e0fbf98761588
718604a620b45234979a5939b5c51d17
fd21f0f6d5f7d005f2864812d0b6294e
8b805ca2964c1d06cf484854709f1840
798883b7ae878cdb937e98eca19ff4ff
8e19d19fbd6478dea5b1cbc056d5d16c
36bdc012097bb0e402559983420e8657
57120df7b51db7097673c65df78c81d5
29b22e50ed88735e0db5c74c83c9498b
95751c8a7fb5eecbc323842c29d65c48
fd25adc9a0e0b5d1daaffb66773fcc29
487e337730be58967d4460d0db1c11a9
48a90b6617579b311b7316aeda1f49e8
2fc61e43720e4b2d8699a6180ab54881
076b6238dc9527b4d6691a63db9eb251
e353c6c6f8d36b3dfee2fb1692eef5e0
b3c89836f3405c9aca08fd9815e0cc43
82a51ebbb0f623045f2515dda0b0f690
3898f5047890e20c9906ddf2334b0733
e7ccc1ab487a01967f4e928047f7e6f3
63f0efe3d1b011b545971cd9729b4dc6
6bb144a31594b81d3b03cd90ef97a3a4
f96b164627af9fc31397bc110ac6d474
712dc435f3662d0ceb453b943a98294a
64c72d1d4a2f39e692652686d622912f
0b421a5b12bffdcb3e2457383a191e4f
23770b6537d6a95c7154410e4d708af1
a529fc6c7fff842fc25e665d0ad5c417
fde29d547828b8f8c2b8b74444b17424
f6c762bec64b98db1d9bb1c07a083371
d7c3f7576d847d8d76fea5a2d72a53f5
72f40a106e5b46e753c921ad3d2bc89b
cd7c68e593065ece423c4855ee526959
2f06964a39088bab49f1906172f39043
628a9702cda60db6453a7babb13fb3c5
da7b787b322d37c7335f4133591061f0
422f53a3692c369ec6c6f414f768ac41
5ea659978ec25356c7d505d0475304c0
270696e0fadfac13b838b32fa57364bc
8bc0530716dacdbc5112af97a7c97d25
02cd62105e63ad80fe70b0b75bf7d4ae
fff231a4cf37c547ab7e3fa71037469d
2ba50fcf6ccbfa8522c50b6b9d470100
3aaa4cf7cee858b5511adecfcc7b1eea
ac8b11000cf7b0bdb46e2a90cebe753a
d76e7e19bb56c91e139ecdb7e7869c41
f73dc3bb272ee665224b65db6776e2a1
2a83e8a384d4dce26bf790b8f326b5c0
0d529833826970ce0279c3790bd32e37
782ad6a50ba45245ef9345f13adc9970
2bce66a539b410008287874fd8068228
b3e3ffa7cb6a9225189d913af6e35800
97eaa68231fbedf2cc61bc26feb02fad
ffd7080800c67e7cc2bb82a6ef2d400f
f5c18a473333e0327ebd3713a69ec14e
c249d96bb8a93cb77277f50098f952d6
96a09e7ebfe776467d0389ced027d52f
a675567633343f7ed0b80954ef8e185c
94f3f9f14c50c697984ce3fe6ffda01f
eb353ac6abbd368a116dd446f632edff
fbcfd4748efb588ef7166a224bf98ebb
88fd4af29970562d57ff6696a4fdeaa0
5e0b17d2d2a6f16093b7936d11c62413
aa366134567fe549fc4fbabc29dea73b
6498a27692bd4a37b0b945dfd44021aa
f24b02bea7c91ab03586231ac700e4c6
9eafd613d2128e48ee4458209ea09bce
327c5ec4dff78404c07be531b7df2c2c
bb038c3a0f2c1e0e88ea46bc561ac70c
12228aa5e6808da7e3b48291b8af745e
9ca999008940af7432795e24245fc5ab
7a4c8ccefb04648e819ba10b3a5528a6
df1534e3851fe34f8936b0aa8837cba1
bf623a53dbde8cdf1df70883ccdcdc8d
55b72bd0336271629d387a15f6aa5b2b
5e6c19db57a7b1db04ae8ff8371925cf
476e541b479814208e0dd3d0962a1616
d6d6247e8503c0cff9c17e71d0d471c3
0667446b23b3138061e05d41de0df84b
67c7cf9768ebaf6f800d1ababae38b46
c458ece5c72db17cff9ee5fc03c143f6
8f4911105d4c51e719119e6e1f695acf
1b24f835bcf7fb9a7330a12887de60dc
55fae5683ac895a41419d4ee0c24b042
c9683cbea07f9e36dc8a5fcdaa7d3b24
52937a4dff2089e5b1d2965cc17d53e9
5931863c4a3e90819a9648e60ab94369
f933fe58543878e55a4cf22b1f4aded3
ef5f57dcbe4738d5f6cdb323e9e8c08d
9fba3c236a4486f1a33253dcdd019b45
c73e7192de7614432d4d55a4e5d9cafc
893c417493f6293194e06faa33c97d5c
b00798c34ef203506edf1f7d6d060577
4ca362e8dbf9c3a06bae0820a363e095
35a2a8a62f9a95d946349fb3e5f9b16b
c360e82cf15a30dc391b17dbe859499d
2bf0c73aa7d6fd3514da7c8266227f6e
a18c1b5b3af9977698359119cec9ddde
f89d2e319168e247549192b6310f17f9
252c1e5bcf90e8f83e006646e78cd4d1
21be79652e7bec87b561013352840ef3
04c70143ba329c1833364e3497ae66a5
6d47c60489f5122d8839827f1306fe7d
69bd8fdd4b9adfe346d79e6328b1cd28
5433c3c345303add76426e4262e58f01
24e206c0b0a2ee186dd5a96980da450f
3147b8a4698d269187154f9072c19f7a
476cc6c790d2605e7cda8472bdc7b5e4
1715514f96e03b312042217af68d91b2
bf93a83ec1fa0607199cef2ceb63a854
768328b931a0ac4ce4969e6fba28f7ad
c19cb73d97f07976d4225995c7f078b6
879d14f4115c978ac50761df4563c80f
454e4200b610faf2295559eeacca3273
95c1270bfaed9af0e20e7734588e3316
271015eab0a350e717c4ac92fe3f5272
48ceacecc63041c48369b96b918046a2
2cc43585aa0e9bb0f7df0f6e99196588
ec7023e95ac45c18585bef0ae76b902d
3e42aa1aeb2d661ae37ea6cb60ca0211
abf3c7b25519501461956a3d32203c60
911965a87cd5d2639e5599a8759ad42b
a148e95c3c0c1b1e815f1175dac5e8f9
15406f6c4727f365c520118d368545ac
bf88d37c38f46ba2910200ead2aaaf99
7cc66de4abefbcb3dc28393a4a8c589a
abbc2ffc6909f9837348951479b3c42e
d369a4937f4003f70827ead304172343
88c41c857236257bf500f23db0f32c8c
e4e71470a9ab4b5b72dd848659c3c6d6
b099cff642ef206218d05656e6967f32
b51f7b151f5e47d41dbf058b8cef6649
2b1d79c374b37039afdc0964c8ba0f4c
acbe4ab628bbd90a75dee92a39a589fe
bef6b3c3540c338116653eacc09a9b3f
846e0baa33aa8954b87f932370a40c26
e7919bec85efdaa90b24345e3a0b8ca4
f20af86df039b51769bcb0fc4fc74d62
cdd0c08fdac60ca015d12bb827763c64
0e2545adcf16a19d30c202d84ee93765
31157fd545397fbb331c88719b567981
8862d8838c943066b78638d0e8c58ae9
9d4fc1d0b69eeb453c062199e160c7fc
9dc0adc3cc204efd4bd2d3b0ac32476b
a129d7d6d49d364fd8b33e9d43acce66
60eabdee601d30f36d35785496b8c11c
7af5e99efea4de3fa976e9758f37b457
83a30b90a0668f7f29209b02341525fa
a7c31245fe0d5714dc833a6599d5cc62
c5e08b58e323c5b30f298dd311e2567c
a812f69eb8be5ba6d8a2f06b8773dbf0
4b98b1ef6e8a9704fbd75fa6bcfa65fc
64671d24be47e659cd5d9f2fff7ea4ee
052a4c0e40ba8a8048e212e1678266ab
3ad7e9e3e50baaac1432808bc39b1e2c
daf3cef2b06f72519f4d94aca0476860
bf1ed14a46e508ca9f001cdb73c0c3ad
dda0d37d871f15140bd7618049267f46
887ca9eb340792a53060e086a2e2b7a6
184aaeceac809eaa41379771db563003
171eccf9b6de70374816d0484339f985
45100edfdf56f6bf5069f900344275f6
8664ef2e21156dac21e8533a59640b5d
c28803708e08249cfb076d50917442fc
f9562121599b843ce34f7862380451e9
4ac5358d246ae0ad126752c9db30f68b
b52b2c29e45f443105841dbd9233b328
aa7a76404ebf2840c4d73083c76503e8
bc943d2667dc758bc58c3c01e5a9370d
726c312f8d3302549102b07bacbb3bdd
86739eefbca4f25e23b94bd9f01f262b
427950e9a4cc515244fc7512761732e9
f6ea898ca38214960abf68fbded62c21
3a0743ffca95cceb221165ce8be992bf
16265594c15239f6dcd40ad92f4242dd
c5751310bae0855223d1a998c7c83e61
a92f22355b647a4742f03c1d564ba74a
a6017b20b502e7dbe7555e84af401037
2aeed792129d6011a0204c5d2bbb0232
92cecccd57800e6c09df675746b44d0a
1122205e98bb8edbb56d11f71b8720a7
08f313f403b5f0201349a333f4f1ab6b
51db0ba2e7aa8b62fe7b8fb3159ccfa1
8a74b753e1cb5ad1c05f14a2a5ce6377
d5504842c56d6b19da0e6e0abbcc50d6
b0ef4f2c8468e50c84830b559be67763
c3bf020793117963cde2452c5e6e7089
03e090d7b2af1eae5607c6bbf87e6447
5de048cb48fd091c410f84418f43b04f
8508640d42e5ef28659cd4d222f7505a
8fcdb329938fa7f793c0f97a84c8696f
7e086a52b2fabdda162f652f8d2bc8fb
138991bf16b8e921c4d846ab22861192
b39c13d5ab6aef8da2eba806f1bd0fce
b4a1622f3e30de9dbc878eb415bf691e
4acbee1f436477f4027dd7d518af0ee7
137bd2c8565a9db5f150bcc32de34517
29430e513142371685d8ef074bd957fb
f64758ba3b9b6a1b5ea1e0bc8350e6ac
2b61d7eb75a82460f06456062bf67f57
7cb8568bc1b665309ceb942ad9d09e04
22e0d84c9e537fa06b8aeb63fd2d5449
d117e0c001b228fdc11f77ac9172109f
7076cd3859a98a65b62af509b6d692f9
daee2a4a6620b7c974fd7d147e76f2bb
ec87a5fdd6f11a6b597918883c397c13
ecb5f2bfd268b989d1a02579eef001ed
f7f1c5d801baba880bd0949d2978ef0f
e824c777848af5d09fdd34e026c9bc51
1846b56e95d5f881b87bf1cb54e720a3
a3f0f12bcb078150b81fa7db059f37f4
9611022f21cec43ac2e4a7f6c6c6b4ca
fd9622ffea41407e3af762c8fea9eb7a
c978d35293c64e126bc4879212cd3526
bc8e01406a0ac0ead5cb8925a60630c8
ddefd15c679f97d4ea00b6c093830178
a3a1994e2031cbf72f3eb3a08966933e
3a58ad55eac13e4346d1c3d071485ad7
f2087f94d61cfadd9a60a48930b8427a
c68a1b052a92de57f6650ba9f78f4348
7b288e1a70a1ac8cca2dff5e3fb120e3
7cf9ba8126782112a78c6b5bc0c7aff6
6fc9d864bdf0a2ef852b56135d5f0350
445db49bf4b4d45fdc9a71c9b470c0a0
67d9225bfa35a5f21796b335bd2293f3
b6b77e25b72704b29d2142016cff80b0
85a069465b4fac6e70beb6fd6d95a9be
d9f9bfa7d9e9df8a6adc0cf4cf118384
e7fa28bb572adbdf8e7823a2b9e0ff6c
c845c63f48e976c6047886e6b35e7e9e
5793da67af0b8784df542330d91fa262
f240193544d536c55a6b345ea617f6c5
e09b95d11dbff979281c4b3c6a0091ee
c40356eb740b283929b34b2b59cb4c69
0c95ed0794c414cefe5d46210e1613a5
d3eb091ff03add98a5eaff68286fcee1
816a33fedb8a27e3e8249a326e73232f
9592937b26568092f07195ba1895d53e
b71d443ce47229e94322b9521b59ed93
66e477f0fa867c019163bd0efae61fc1
22dd2583e74dc9da6c27382f286c4281
3ab53e83968542170e36afaa3db35cb9
3507955ac605c21db056156c082e8e7d
4c819a4999da017b8aab8f99e0a6f4ec
8701a91587d0daa59d7ecbaefad6c39f
42a6e88339b4633e121e6cb8b617faff
3dccf11a433c217e46b2f01a0605f537
5ce985c90c268231e13149772e4be2b8
be0b7415f0c672c709a76eb3088d2592
20369759b952655b426afef39f2f417e
be4c452ae03a83f0be67bc2c21912cd7
07894d5c2352240ea63acc42b12c1967
2dc7840cb8bbbea5bf24a52d8fb01273
1e9ada3e8ff19f82013bcffaa37f6f5c
68a0e4932660ab979dbc94f2892bd3d4
a67c33ca122d0ce7b07ea45b627a7760
709b231e3647f27985e82fa8c50fc20d
6f3460cbc62c00cc11a83f7db8d8237c
dd9c2b05012c21ec78aaa99252873c47
7c35d4e7ca8ea8db5aefff58e9c1bb3b
1f8a5b8c03f7f17c1d3298479e290571
d28e9e9052a31d0259a66eaae2860e24
8ff3242ca034833f53fc1bc427be14d3
13bd7bda3f5047db72693b86ff92fc51
365e630ffe33f9704a9a5636794b15e9
8caeedc48450aa555df78e148f5bf443
e62be90e26e17d7a8926ff65dca4e034
7edc1e9276d85a781040f4ca6510960b
ffbd11df81c3101f81e24312e0477955
c70d696d7734f75578a1faf978a4585d
5a44ee2ca5a27c5b64f2a65cdee2ea47
7144ddadf967217955da8d47be04d094
fcc14083b777cbc922e692123252d12c
634e90c426bc9042fc0d80885c8ba021
41ab49988e44f223527dfc8e260bc3f0
68dfa1777c6a3caf74a18d73c2d656d3
7e0ee65271ee3874f44f2045a384bb5e
dace3ad532c8de4c859bf4fef5902afd
f244aed7fef7b7a9ee3b351fa36badfb
349dfb15e4db77aa4d158d6c2fc7b6ae
55b0d8ec6313f8f819c38ecda217a166
168856c45d0965b4a613bf0353d4e330
d02760a0936a48b6ae1dd9ba50bf5b2f
05079f72dfca5bc53ba7ab37743d572b
e54b8430fb60ee19bac9027a7b4d2172
cf3d410c64c13a7bf404348f2da8b305
0e7651f27ccbca3b476bd6f699a6f8da
9145d012418bafd3241a14a57a1f3340
3d59755200a984df9257474606af652d
346d4e2d3fa3dfa031a9fd68681bb068
ca100e5331670c53b5ba3bf1dc7857c6
adfafeafd13078f3baf32af2adef3c1d
5e269293aef2a5ea7c5d49aec1e37bfe
e01cf3bcad724b026d791180d5cb41d5
27368f4c5e5b0de12dca59b4d3eb7527
2a5f74678757159f66607b7f3e5b3380
ae15e4685fcf74992e8cb7b700e4ad27
cd503db90de7b46043a9f4db26fca958
02ec6af5d0e40915e01bebd3673f0876
a37d8d086c3216f3c6362966acd2eb5c
835c2d666b1415942e420d22d73fd123
420c25ab955e05671e4350569fc2cbfb
33beede16910682f287cf32a83d6629d
272fa75ed04f0e6705c9a089083ae773
39026a9912a6e8da7de58b3b518a81e6
0ecda9a670523f2dea4ae0ebb0adf110
c673e9ff8d5f33a4a76bf18a946e63bc
2e0ced95bfb92a13283317aa4901a6ad
9d9a0f507618b8a0a5d7de8c849c0728
fecf5be2be7d74ed07f97c1e3862f4d8
3fd9f949bd8f275edfc58d1498e07cbb
396f3ef02af8d25a2d50c60db3a9c7b0
4404d8efa001b2333529c73e04870d72
77ba982be3de8c6f87108e06d14f1753
603c0bf9bdd81d937f79c5d696614b83
7c61194a92d5eb619c14618b6532fab3
2d39e1c89f63a91d8aceb265952ab7cd
1e6be0b6e1a77c51cffaaf16f8b90114
a09e74f36a22903eb46b2ae874ce4d22
5066b8eea9a5e061444cf34b9e12ceab
56b773845313456e6cea4e687bf9d09e
9544051958d628ee4b20a5a2c5ef4fa6
268980c821285a9553b3b64dd3cee77e
b95487466f342b139f8ba1062f29dd5c
f3d8ce8299b577b111f2bd7cc4353e5e
c801f374fbf9e3ffe6e0fc5697c5a6e7
f83f28bc08031ac8eb1232409d5ba221
28697fc8656486e726ff141e8b9d5a3c
57ece32883069544d30c2eaa28429bd1
10fb50f6023a22380c591984f48f5f83
278cf4b3c16828d775fd6c536c848df1
94c9e525083e9fc77b263e12f7bda3f6
da98b62152c239370285480dd08ea4be
db3f86241860965f0e93955d37b2989e
aa2a86b432ef9bb2e6deb7b598587dce
cf8a00a9db054bee82e57d9460997b13
6b15d16bbffb2a2efd3a2433ecd44b27
6a21bd09697699bebcf50f7f06f66797
a9b221a1c089126ef7c0112121d37cf0
35c05ad6d9bd7c122b6f1cb6672bd4c9
af364c1cd276659036a9df5e93bfb3ac
0c21a555d1779e5a37f5684e2f6789d9
62aceab440324a7384fa36450177464b
244b07690ae61ad6ba1b33df485c6844
20cbb6476bb63be49e234509b3796c4e
4453f336fc570ebcd5eb7482cd358f72
cc738b6773e80a3017a61ac67b208eed
2e790e7182b69e30cbb9b886307c3961
bb75c2e1f521bcde6bace74a1f407836
002e725eee050fd4f397f5e73f60672c
dc5631dcfec8e76d40d4ccaa3492af29
8440029cfb4bbf219cff797400470fd1
a7635a4814042555d561efb7a6825cb5
8b19d52bc83d9ac773455e1ebc6b83b5
dd6f9a855a62440879e2bd77dc510c5b
c294c0f95c4be8d64c1240386a088f43
6a8766afe150ea741e31ccfefce176d5
1b6ff76daa756c0878ffff9846de03e6
6454121ee476f475d2c7ae69714cae8f
7231e817dca472ee81a0045b4930f955
4a20aeb7533df934490a9a6a9aec7158
59b945f8d5195a18038fff94f4a3571d
b1526df8515534a8999121b0b379f789
f6dff6131d2349625b3e507d409edc15
84b345377fcc4068e68ad14e8a4282d5
4c2d079c887f006d44ce4705077480ad
5ac9ad02e791ceeb5c52651caa10cddf
260c9dcbe731b7b7a6c16a4df835eada
af788462bb8515755701ce50e8b51301
b736a4c444d04666e2304342a246992e
786938d080b124b4414e8a549c0459b6
dd233fb1931ef79a5b9ffee76bc8ccef
13400eac9cc0f34e085b02ff3a433e38
54caa7eed3dd1074c5f1459fac9193cc
8ef14a450445a71218d7c2d094b5f963
d4f54a97aba32073698a9cd26cf6ad8f
94f3a27310a745fa4e54212e3829d219
f4490409ebf928257bc8eab42f9c5c32
d1f997238d74c5cf43f02e48dc7aa630
40b8df02c0b847d2ba9cbd8fc22fba50
3bc245a601d33d0df349bb8b1bd78183
1c601351e129531b95ae97c8a9585538
fe8f8bb90c5943df28bd44fc9e5e586f
7f4798bf1d6b8f4e35958abdbe34d8ea
d4b07040074be049bb859ce3f3a3f74d
992cce83ff5969c63980189eee626fe1
8e57ad14cfd35651a418e93b8be69c8c
0a4704e9b08d1de97c6ff6d69880c70a
347f45b29fab5fd05d5ca057bed6acc4
4c8be6c4f9330befcb956603dd08da10
b70c714a57f61a1ae41f856902f3eb29
0f3fb24ec8e87ad11779cc8e18bab04f
7fef7ad204cef730c8f87c5aa510ec8f
969a1a31af00a5cfd0599cac4c8f36e7
d9df1f34af7f0a5cdb4e937645454da8
2eeb8923404074459d95a640b5158a91
86ff65242541055878799ab009addc64
144ae67ff04c80df199a4e41253d104f
356d092d2c341847d324bb93ee608e93
bb77840e188333c02998d62185c39ed6
5bfa294db3e2357e06917659fb346d82
d05b7a5db96296f117460557639c8079
68ad2fd4ac6a502debacc9ec8d2823fa
613429daa7b04273804db82a26cde307
ce2bdb197a943a219203cbe9b9450f49
17dc2e5a83bed719f20d28c2295e2957
f464428d33abb9843f638f478f8002b0
75ae0a6dc9c4d59f558d71d755bd250d
611556034e39eca604c9ec332cb8092d
f23ed39b00aa2a684f59a1d5cf33c3fa
9d997d41b68dce9a609a15cdb9cd57b9
a26c69215a953160383354729901e6bd
b356826088531301c4efc70300da7c2c
530d539aeed7c735d79dd6ca9b06a169
c42f4d2ea20559d0f88ee2f306f98b0a
5772c5a68669a1aaf5970c7249d928f5
c90b4540b61bb9c63566e29519a43a91
7c74cd3e7f44b6a9a398fbd590d12b94
21650bdb63df7e915b7ca6cb57bcca8c
49cebfaf775f4bc3f4edafabbbb74cf4
6a6bae04255157e2c293fcf994f606f6
eb3a45b49ded560b744fd04327651350
5adbf346761ef70ee1f5bae77a61a0ed
7f20ba087f05e476fe3b5ae1e2ac0f8c
75e2c98528d1e1ca3aa430dc675f6578
76cdc4645443bb783fbe7e2192a79878
59e2dac4fc4be7b5f6294971ead7dbd5
ebe5609548009bc7ec7b8c7ca4789ca9
16234d466f92bc14d7caa16f3dca1487
b6fad730b9a76329811b95195a702a14
bc12b22ddca249689b45d242642d7d5e
e3221c0385e915b97bf70dea89ec414b
93c8e3cad084c83d46d3021876ebcc1a
5f85ad5f0ee03b13d87809a973bcab03
94cbc61746aa09f042b42e90ada79d21
38253c83c1ac0defb72d4488d0605659
6e1b62859f5f136042f2b9d71250b4f6
ac25fce198f4f7a986c88f14d7c786e0
36de465e7b56994de0197ad551ab6c14
8c46776204c9acebe2ce1fb44b5b70cd
493c6ae91124554f7f02fdf443f01c54
4fa4757f6f8cec994a68b1ea4fbcb63f
17b0f20715fbf299ea9396cdb1f92e89
5aba2ce4978530812ebb514242f3588c
2067fe4cdbd626e5c58068585fc15afe
1065dc6660dec8f4a81c04fe492ca7ac
c74eee6d16acb4638f7c2d0e43b7aa7e
71b55728025f9c32384af77316686378
faf1e952ccdabb9c963f8fc4f09786d6
d13e6debb88790647c2483f3605623ff
a8c40a2bba93c406e4c1aa5c88792e48
00226b76e1c30436574f4cbfa036ddae
557c8907c70d3e610e0c4936366089a5
1956dd5a0752f2f25c7fd1b288b316c2
b8edf8d8683ae4d3d5e1a5fa6940d462
8ec8373d1b2f0a8d04db08f07cf6681a
ca9f1fcb1304d6f205d4f792ab136262
f1b7f153a03392f7139d68751800d102
9546ea5efb3ad25beb503d92004337dc
2189b560c5b7c4cde259657ebc93d645
be5b1f69a9c1dd09402f6e95d6569c91
5a517a95be1fe810a29bb6019d0cfaad
7b9d5f96391eef54b71b40164e25fe9b
15a6e642f816ccbd7bbe3920054f0924
0e9d8752612d91230f9205e9a53d73c9
9234bc41e605e70ce1a2658deede3703
a485b9c24be1f50c10b6702e60d0d3c6
42acc204b33a05da4cbe26d7f067a2ba
ca5aaf44caf4be13c79e3c3d178d33f4
8c628fb38bd7fad2fc9572a1feaa538e
993e9f521717cadf15d2a641392bf7cd
c3233c858e2129c6bb856fcff0f3be79
eed9cba41b33b7d5f96ca908ede05af3
dc4f12608f4bdcdd2b00d9ec87a9cb83
9a6dc485ee279880bc866cb14525dd11
f8707fb5a61749232213a02f46ad468b
ce02b27d67d23ba33abedfda90d485a3
ece00fc46db1757f4d4b2ededba0874f
eddb00cf732ed33d9b2ce7fcfbd9ad67
b0b419ca2b0eb3dbb009434f94009f13
a6f1126d0b25128c1a496678b8bfe32c
fa3a6290e96351986378b1a1af90a007
defdac290697bf388d9c0d7e4b8d8164
0541434931e81c9e5af73012c08bd1c4
cc2db7daca1f1bbfb8bc82b4a799f2d2
97735454a7cc23fba7d05ef35d51b139
1060ba1ff5bf231a65d95c9b8dd9e59f
b12d35741cfe17f9deb57706f69cf47c
082bc361c8f8403e4560636b126cf365
7216c2eb84ea0c41ab5f0db0397f9dd8
7d517e36616d906ed8e88e27a9d71f08
5bb32e34287c639f7a0241c77e853f01
eb1d919869d3bae731d0309d65727874
ccca718198a17291fad92c529e403479
16d2046beb0561407406a745dc9a3a33
bace21acdb37eb195474be3b7d4e2519
4a52fbb31771f89065127942e5cf146d
626436721b1dad76d48a9012a3cec78f
2cbf3aef6b277fd8c848e657dfbea693
c3c112871e0c8425cff0e10a040090fe
1cbfcdbe3700c390ed050c3c33e7d112
94dc87e3f1113ba4093e820414115929
484f7a5c2229ca303fa5d00626ebbcc1
e707230905bd24aab736e2e4b04ca32c
45c8cd200cceb19c22685a39256273c7
f48c39f56c1be1f012a863faf9a91b93
8fef240ce0bd2ba08cb9dfbc1763f33f
8049c9408003e8875b5681984d05aaf7
eb0f5bf3d148c194677521a5cd488c36
8bbc9f9e07d1b0525bb4c35c13fbd2ff
e99b4cd649140dc2a12e5c754c9759d6
56b189b8b945cadd5d0a803841153912
a503a1f47a6af469b2e9164a9ca263bf
24fc9f1de2fe118b11ece68113e40387
c93bf592e993d86f8457734e9bc9ba98
c790215848203b02892ff61594958433
c82666c4e6f353105259fe5962017389
12644b7cb67fa7deb9f4c1172edef625
65b416e3b608251bc119ed729f6dd1d2
219579eb349294c958f6a4ac25127ff7
fe98271bbeba7552cf4949f88130e5d3
8e94172c7c6062cd3ced65ebdef9ff02
b4f898a32a3e40b93085c8daf73222b6
e32f50d451520d96f7ea7090d8d8e5a2
ad644b368e48d5d31af11e8ada3feac1
682c53bac73087fb5fbe8d02f41da73d
4dec4d2722a4e49f5155e7de36e97642
9a4134ccc598325060e3ca53b35186b5
f6bc59fc952ebeb5b59916055290e17e
4f547d55f4b8bba84d6246804ad33df5
852b9abb563971a7fd1a97979e264b29
45ce1d684372f84b5142fa0a5f97a429
f7520262676da7b0fab22917a642c3b8
3b390da8754e0894473a203fe3516e78
4bd753db8a25232d2be41fd4e4afb103
67ecfd141a8d66be694588e55f3570e4
f07d9c030a25f9f576d3b5514922d1b9
b817bec7a007f0f39d9a9b72fc102f96
38400fb5ce34e1764129b7a5a189519c
23e9b7dd71cb8775f93940b75e31bec7
9316d5d4b016bbc5e00f895dbb907ecb
9c4ee31cea07ea17fbeed25cd3ed01ad
65755a2cd31c1b404a5b3753f9c1f71d
4b97a2794ad91099e3a61f55def7e7a6
e6dfae4e011536b461e069119f503e2a
e1f569ff562bf3e33d678bcc79bebf37
5f24ff46addf9c003573659097ea98e7
895edff450892588e427a7c9f38ce009
2b0299d602a660a421100dd0716bc029
3746cca21c6d181440198c6eea527ba9
9c3f06ede5f337aceeec35570364e07c
91aa3f23acf03799d64d55146249dd15
69f5cdf4556324525ccdfe40a66df61b
4c1bdb68a2c44d917583d4888450fd80
328710a23e82881de52e67f9f6559699
3702f10b459d741e0815c299c73ba996
4197301f30e3173a817419f6d716cabe
5d0ab475bc6678ecc412073bb41c79e9
08014ab77baf1887013e5e3caff313a1
79c09f29320886cad03ff28a13d06731
8da65274b99913a1279a6999cb384fea
1842db9d63b21c8cc2231b966f160c0f
bf7c83d5ce0535b2af8de9ad3317fc94
b18cf7fa578aa8161e39692fcc37b087
551dd0652e56442391d758b6d21fcac1
593cb14a742efd91dd6596c69667e610
766381a1ef262dfe526fd1a5c07adf0d
f49f7b234a64715c2fd289cbc206431b
0baa4676c64d106a29d05ac82d6e631a
c1ed751644295a631be911cef265a750
338a783de33f57fd9b2ec1e1c14dbeb5
de7aea52a7a53cbb6afb0472b9f2a609
beb6757d63ad153f48f8474aa103386f
af903483cc238e57d05c15ffe98ca101
9fce78034c2b5b795bf3b0e3ba5499c1
2670d3b5aade6aac6efdc4e1515bba1c
f9263f6c8cdd0c9f9c1cde098df3a77a
90964af9f41eaadd5de0755c2386a9dc
a5885b69a41b0529df8ecab6e6d758e0
078bc55611833bb8a6ec69286f2d1039
6a7924a6a745a8d92d305e536ae9731d
f20585e0d0bb85800e880230fe4fc4a9
33d09998557980fe3d97cc6d2fcc2755
b83b69bf8ee5b4d16f8b60509bd29fca
84939aee62913416522eb1e180eea51a
951c1d07ed06e25d2f4d66feccf85175
cd44ae9c858798ed9832a6a185680a04
88b85dfed15aa88e8b9a94670caf1376
5e37889d13f511d181ead6429d6d691a
965f4310dd9b534bbad6fafa7e5e0f20
bbb9a44116280b356abf88ca4f5831cd
23e8f49ea400d43c1a2347158a50c464
6e7a724f736dca4c12a644ed9b65faa5
83804a1710c1bf6fea38b68825d30fd2
808993dd263ab245db24c6e9613624d0
1be2684c40d3c65d9b0f53d7a61754f7
37859e529cf93d27399722deefcdcd75
1485a3095be8f937e749d96e7db91c9b
8c061fe9f271f45a75728cd99c92cb5e
43f2826ace1aa1011da06868758012de
e4d314625e3a541d8887aa328eaca135
974e1d6db30ad15132327c11603d4871
ae45eb61a57fe1dc35e20655fef187d4
125961b476ff48ac0ef7fd48e99b7843
972608c245809c593881e61f86ea738f
2c248540705f1d0da1fd580977c8faf3
ea57f2f4e7b9b99c617954efcd815cad
b5a723780c73160e5cdb59e63775f34b
a0c05b0cb8bc3b6817e7b9dafea3e06c
8487003dddda57c1c1b9efb10db0cfe6
6fd30f74482996806474cc3b4800dd27
be0eb10122a353a4dd0c15a2a15a267a
9564de35e6b87305dbca8b6d5c41437c
84e49937ba58a07fee7b25ed31ebf287
5a752e1b81035286e0dfd8dc9a3532ed
96d11c3d7f6f87ac8c41f0341140a898
9a61886303f0761b0939efd81e227627
5cbe98b644c479b9d4487ca6172d4afb
114a0e58e8ffb085a117bd782aee1918
e95d596914a95f84ca7ca9957b3c7eb9
511823aea9324cdb35df676e165f14bc
4b08cdf7fdfa434af87edaa5a7e8516c
85d9702fe79dd604d96be6c7c11aca85
669610539ed0dd17dda3192547f55d99
04b8834b88d629e5bed158b72eb3dddb
b846bc5712c5546078129ff23e5070fd
ea7e6653a1760c3c53bcc507d7b640f8
ffb17a0094614cbb7b3268c9ed75f942
2e1ab1fc734fb588bd3423adf1055e6e
528bb19c18028c3c42a4d6869057f0ca
02f45be0fa5487188bee2c5705dd5547
1ddf9c515cb4a667122e12ac9a1d4d0d
be752d64bfef9e386dfb53fe875c3190
ba2ea0388e2f02bac61fb1a2b1637296
232e189ac957e7a9de791288b27e9fa4
848ab91d81fc02ea4e2aef5d0eea6149
dc41fcea503f34c0c50f4b62562f51f3
16784ca694c34ba9c650ed7a9bedfa87
406e2534cbe1c5a79dbb41c02ea592dd
5ecf6c0878eb0a09829ed8c988256944
be9e82ab9beac44bd994465d5aac2cf9
f8b224e3f703939fdeb5065c23a89615
fc435f617118135d16f83956928594a7
4308119882b6d16c0cef078aa2a430f5
9104316b9ef973deba61ecd74d5504ac
c59a73ef01ce4248022dc492ec4e2855
1d8ff7a23c2a17789c18eb8728c758ec
b751b4ada0c11460cc4c3322bea9f938
9ff17e14f44631a68754f009fa45145f
9d696d0ca433af99a4a47166378bcea3
227c502087a01bba28b04dc459047eac
e5154ba0e8c1b7bb2fed985ebb9d2506
7c6dcffe3f3053df40ee41c56602246a
4a0907af09c3641744b30640630d6138
507c2d2624d8acab075f66f2a0a48759
35ceb0539e592952af7bc49359d73405
f32aa80dcda51f0845adfa8761c873be
0ac62643477aec571b5596acbd0c7694
f16fae0dedfd7c64ab918019593e46c9
a900d4511e7e1fc8e0abcfe3b3e3d45c
40dd991736c89bedd33af4448452c7ca
3db71104e7c91a09fc990a3e779a65ff
a2d74cc15454f8e8d03bccf5a7c47123
a40ceaf633bba0daa678719bc857cbe1
f155469511b7dc350bb2bd7b9c60ca49
c6a32075f9b23dd28429b8f0eb03688f
c520481b7ec91f41ebebdd8bc98dfa6f
a6f707288c86b0a3ae89e3a8f33bd2ee
eb2937a6c5511fa53dde6de458bf5f83
829aef627d21731f6857ef09485ab978
278506b60e4ab76a6f45d096ebcf7805
8d2f6c25b62503567fc3df69067a511b
f94e8536583e9d657ef9ed9559fcea19
a10c352c757838aa4dbb6db25ca7cdad
20e4b2910f58fe3a34720f56d63f6986
c29e22379acc391fa9f8e7689b5313cc
453dd6594c7a732cd165afbc76a72a22
3a6ea3a969d7ec9763a887bef6e8e160
034e97bea305a6f663e31a5572d806de
d93693938a165cd8859d6fcd4984777b
c5dc048703a2beb282849152293b5502
181fc2ca55369fb309eb75c2fb2e1af8
d0c7022825d5003b551ea81cebd4de50
86741ad5472b2c619b3376dc2cca6e98
2cc245f6033180558a252ffb9cc90b81
b3f5ce6dc2f1ee939dafcebc750399e8
d9397d25f36fbcfd8815e60ce08fd631
d12b06732dd87839db885d8d08ca0351
1fe80f6dc47961864ce22b3a85041946
49cbda01d1d76ebd6a6392e605f081aa
7a8716b6032bc4904946efef786f6003
166ba89b279d34fd2e9f5ad2be03824a
e5ab5952d38bf32a3bda3b1eb6327071
7f276c4ce1e7cf60bdfe622cc313e6ef
0ba56a8f4930290f6d4747211d87341f
383c2f9cebe017199b9de96ca7eb93f4
e53ec7ce9142635c0770c7607f935bd3
611b1e3fa466faaec504af8d69287be8
a5e7b737da2e54495d125a74df1d0fb0
d6fa08a953502a077713c15761e6d86f
226c738fe122b19da29915df81ebfbec
7ac7e8b111761d1ba459ae5cae8e349e
805ef4ccaa5783245853838509d4caa4
ff7c38edd4bfcec82a0d6ac12febc93a
37e65ca96f6bbd3efc7940c9375b4423
d5e05f3d157a63153af874c42cd1e102
178f6f65d7ee29d551a7db1588f21f8c
284bcf8063fe8152a23a795b2af22676
50091ea500853955580a8c0bb2b7541f
190eb642d4c99ae8cdeb689bbfac2f91
9c207d38bb8f7d5d6e1bd14409a5df95
d6fc631565182f55f93d6f54acba4c82
4bf9d971faaf07a94c9809540a621c05
a3704af49d9cc8651f1bd14c98006491
388e7996e9b185fd899cac0d7c76bf41
694a8adf768b991adf37f4cab2913bc6
467c4772f7a60ffdae6d42edaaacbfc7
c0e5466b4a8d5f67743efcaf88b8d0fe
797882ba66ead4b293aa941ab7220f18
